# MagicaVoxel @ Ephtracy

# group
o 

# material
mtllib tree4.mtl
usemtl palette

# normals
vn -1 0 0
vn 1 0 0
vn 0 0 1
vn 0 0 -1
vn 0 -1 0
vn 0 1 0

# texcoords
vt 0.916016 0.5
vt 0.955078 0.5

# verts
v 0 3.2 -0.6
v 0 3.2 -0.9
v 0 3.3 -0.1
v 0 3.3 -0.3
v 0 3.4 -0.6
v 0 3.4 -0.9
v 0 3.5 -0.1
v 0 3.5 -0.3
v 0.1 3.2 -0.2
v 0.1 3.2 -0.6
v 0.1 3.3 0
v 0.1 3.3 -0.1
v 0.1 3.3 -0.2
v 0.1 3.3 -0.3
v 0.1 3.4 -0.6
v 0.1 3.4 -0.8
v 0.1 3.5 -0.1
v 0.1 3.5 -0.3
v 0.1 3.6 -0.4
v 0.1 3.6 -0.8
v 0.1 3.7 0
v 0.1 3.7 -0.4
v 0.2 3.1 -0.2
v 0.2 3.1 -0.6
v 0.2 3.2 -0.1
v 0.2 3.2 -0.2
v 0.2 3.2 -0.6
v 0.2 3.3 -0.1
v 0.2 3.3 -0.2
v 0.2 3.6 -0.4
v 0.2 3.6 -0.7
v 0.2 3.7 -0.1
v 0.2 3.7 -0.4
v 0.2 3.7 -0.7
v 0.2 3.8 -0.1
v 0.2 3.8 -0.4
v 0.3 3.2 0
v 0.3 3.2 -0.1
v 0.3 3.3 0
v 0.3 3.3 -0.1
v 0.3 3.7 -0.4
v 0.3 3.7 -0.6
v 0.3 3.8 -0.4
v 0.3 3.8 -0.6
v 0.4 3.1 -0.6
v 0.4 3.1 -0.7
v 0.4 3.2 -0.6
v 0.4 3.2 -0.7
v 0.4 3.8 -0.3
v 0.4 3.8 -0.6
v 0.4 3.9 -0.3
v 0.4 3.9 -0.6
v 0.5 2.5 -0.4
v 0.5 2.5 -0.6
v 0.5 3.1 -0.4
v 0.5 3.1 -0.6
v 0.5 3.4 -0.8
v 0.5 3.4 -0.9
v 0.5 3.5 -0.7
v 0.5 3.5 -0.8
v 0.5 3.6 -0.6
v 0.5 3.6 -0.7
v 0.5 3.6 -0.9
v 0.5 3.7 -0.6
v 0.5 3.7 -0.7
v 0.6 2 -0.4
v 0.6 2 -0.6
v 0.6 2.5 -0.4
v 0.6 2.5 -0.6
v 0.6 3.1 -0.6
v 0.6 3.1 -0.7
v 0.6 3.2 -0.6
v 0.6 3.2 -0.7
v 0.7 3.2 -0.8
v 0.7 3.2 -1
v 0.7 3.3 -0.8
v 0.7 3.3 -0.9
v 0.7 3.5 -0.9
v 0.7 3.5 -1
v 0.8 3 -0.6
v 0.8 3 -0.7
v 0.8 3.1 -0.6
v 0.8 3.1 -0.7
v 0.9 3.1 -0.6
v 0.9 3.1 -0.7
v 0.9 3.2 -0.6
v 0.9 3.2 -0.7
v 1 3.1 -0.7
v 1 3.1 -0.8
v 1 3.2 -0.5
v 1 3.2 -0.6
v 1 3.2 -0.7
v 1 3.2 -0.8
v 1 3.3 -0.5
v 1 3.3 -0.7
v 0.3 3.6 -0.6
v 0.3 3.6 -0.7
v 0.3 3.7 -0.6
v 0.3 3.7 -0.7
v 0.4 3.5 -0.7
v 0.4 3.5 -0.8
v 0.4 3.6 -0.7
v 0.4 3.6 -0.8
v 0.5 3.1 -0.6
v 0.5 3.1 -0.7
v 0.5 3.2 0
v 0.5 3.2 -0.1
v 0.5 3.2 -0.6
v 0.5 3.2 -0.7
v 0.5 3.2 -0.8
v 0.5 3.2 -0.9
v 0.5 3.3 0
v 0.5 3.3 -0.1
v 0.5 3.3 -0.8
v 0.5 3.3 -0.9
v 0.5 3.4 0
v 0.5 3.4 -0.1
v 0.5 3.6 -0.1
v 0.5 3.6 -0.2
v 0.5 3.7 0
v 0.5 3.7 -0.1
v 0.5 3.8 -0.1
v 0.5 3.8 -0.2
v 0.6 3.1 -0.2
v 0.6 3.1 -0.3
v 0.6 3.2 -0.1
v 0.6 3.2 -0.2
v 0.6 3.2 -0.3
v 0.6 3.3 0
v 0.6 3.3 -0.1
v 0.6 3.3 -0.2
v 0.6 3.4 0
v 0.6 3.4 -0.1
v 0.7 2.6 -0.4
v 0.7 2.6 -0.6
v 0.7 3 -0.5
v 0.7 3 -0.6
v 0.7 3.1 -0.4
v 0.7 3.1 -0.5
v 0.7 3.1 -0.6
v 0.7 3.1 -0.7
v 0.7 3.2 -0.5
v 0.7 3.2 -0.6
v 0.7 3.2 -0.7
v 0.7 3.5 -0.1
v 0.7 3.5 -0.2
v 0.7 3.6 -0.1
v 0.7 3.6 -0.2
v 0.7 3.7 -0.2
v 0.7 3.7 -0.3
v 0.7 3.8 -0.2
v 0.7 3.8 -0.3
v 0.8 2 -0.4
v 0.8 2 -0.6
v 0.8 2.6 -0.4
v 0.8 2.6 -0.6
v 0.8 3.1 -0.3
v 0.8 3.1 -0.5
v 0.8 3.2 -0.3
v 0.8 3.2 -0.5
v 0.8 3.2 -0.7
v 0.8 3.3 -0.5
v 0.8 3.3 -0.7
v 0.8 3.5 -0.7
v 0.8 3.5 -0.9
v 0.8 3.6 -0.7
v 0.8 3.6 -0.9
v 0.8 3.7 -0.3
v 0.8 3.7 -0.6
v 0.8 3.9 -0.3
v 0.8 3.9 -0.6
v 0.9 3 -0.5
v 0.9 3 -0.7
v 0.9 3.1 -0.5
v 0.9 3.1 -0.6
v 0.9 3.1 -0.7
v 0.9 3.2 -0.4
v 0.9 3.2 -0.5
v 0.9 3.3 -0.1
v 0.9 3.3 -0.2
v 0.9 3.3 -0.5
v 0.9 3.5 -0.1
v 0.9 3.5 -0.2
v 0.9 3.5 -0.3
v 0.9 3.5 -0.4
v 0.9 3.5 -0.5
v 0.9 3.6 -0.3
v 0.9 3.6 -0.7
v 0.9 3.7 -0.2
v 0.9 3.7 -0.7
v 1 3.2 -0.2
v 1 3.2 -0.4
v 1 3.4 -0.5
v 1 3.4 -0.6
v 1 3.4 -0.9
v 1 3.4 -1
v 1 3.5 -0.2
v 1 3.5 -0.3
v 1 3.5 -0.4
v 1 3.5 -0.5
v 1 3.5 -0.6
v 1 3.5 -0.7
v 1 3.5 -0.9
v 1 3.5 -1
v 1 3.6 -0.3
v 1 3.6 -0.7
v 1.1 3.1 -0.6
v 1.1 3.1 -0.8
v 1.1 3.2 -0.6
v 1.1 3.2 -0.8
v 1.1 3.3 -0.5
v 1.1 3.3 -0.7
v 1.1 3.4 -0.5
v 1.1 3.4 -0.6
v 1.1 3.4 -0.7
v 1.1 3.4 -0.9
v 1.1 3.5 -0.6
v 1.1 3.5 -0.9
v 1.2 3.2 -0.5
v 1.2 3.2 -0.7
v 1.2 3.2 -0.9
v 1.2 3.2 -1
v 1.2 3.3 -0.5
v 1.2 3.3 -0.7
v 1.2 3.4 -0.9
v 1.2 3.4 -1
v 1.3 3.2 -0.7
v 1.3 3.2 -0.9
v 1.3 3.4 -0.7
v 1.3 3.4 -0.9
v 0.1 3.3 0
v 0.1 3.7 0
v 0.3 3.2 0
v 0.3 3.3 0
v 0.4 3.2 0
v 0.4 3.3 0
v 0.5 3.2 0
v 0.5 3.3 0
v 0.5 3.4 0
v 0.5 3.7 0
v 0.6 3.3 0
v 0.6 3.4 0
v 0 3.3 -0.1
v 0 3.5 -0.1
v 0.1 3.3 -0.1
v 0.1 3.5 -0.1
v 0.2 3.2 -0.1
v 0.2 3.3 -0.1
v 0.2 3.7 -0.1
v 0.2 3.8 -0.1
v 0.3 3.2 -0.1
v 0.3 3.3 -0.1
v 0.5 3.2 -0.1
v 0.5 3.3 -0.1
v 0.5 3.4 -0.1
v 0.5 3.6 -0.1
v 0.5 3.7 -0.1
v 0.5 3.8 -0.1
v 0.6 3.2 -0.1
v 0.6 3.3 -0.1
v 0.6 3.4 -0.1
v 0.7 3.5 -0.1
v 0.7 3.6 -0.1
v 0.9 3.3 -0.1
v 0.9 3.5 -0.1
v 0.1 3.2 -0.2
v 0.1 3.3 -0.2
v 0.2 3.1 -0.2
v 0.2 3.2 -0.2
v 0.2 3.3 -0.2
v 0.4 3.2 -0.2
v 0.5 3.1 -0.2
v 0.5 3.2 -0.2
v 0.5 3.6 -0.2
v 0.5 3.8 -0.2
v 0.6 3.1 -0.2
v 0.6 3.2 -0.2
v 0.6 3.3 -0.2
v 0.7 3.5 -0.2
v 0.7 3.6 -0.2
v 0.7 3.7 -0.2
v 0.7 3.8 -0.2
v 0.9 3.3 -0.2
v 0.9 3.5 -0.2
v 0.9 3.7 -0.2
v 1 3.2 -0.2
v 1 3.5 -0.2
v 0.4 3.8 -0.3
v 0.4 3.9 -0.3
v 0.6 3.1 -0.3
v 0.6 3.2 -0.3
v 0.7 3.7 -0.3
v 0.7 3.8 -0.3
v 0.8 3.1 -0.3
v 0.8 3.2 -0.3
v 0.8 3.7 -0.3
v 0.8 3.9 -0.3
v 0.9 3.5 -0.3
v 0.9 3.6 -0.3
v 1 3.5 -0.3
v 1 3.6 -0.3
v 0.5 2.5 -0.4
v 0.5 3.1 -0.4
v 0.6 2 -0.4
v 0.6 2.5 -0.4
v 0.6 3.1 -0.4
v 0.7 2.6 -0.4
v 0.7 3.1 -0.4
v 0.8 2 -0.4
v 0.8 2.6 -0.4
v 0.7 3 -0.5
v 0.7 3.1 -0.5
v 0.8 3.1 -0.5
v 0.9 3 -0.5
v 0.9 3.1 -0.5
v 0.9 3.3 -0.5
v 0.9 3.5 -0.5
v 1 3.2 -0.5
v 1 3.3 -0.5
v 1 3.4 -0.5
v 1 3.5 -0.5
v 1.1 3.3 -0.5
v 1.1 3.4 -0.5
v 1.2 3.2 -0.5
v 1.2 3.3 -0.5
v 0 3.2 -0.6
v 0 3.4 -0.6
v 0.1 3.2 -0.6
v 0.1 3.4 -0.6
v 0.9 3.1 -0.6
v 0.9 3.2 -0.6
v 1 3.2 -0.6
v 1 3.4 -0.6
v 1 3.5 -0.6
v 1.1 3.1 -0.6
v 1.1 3.2 -0.6
v 1.1 3.4 -0.6
v 1.1 3.5 -0.6
v 0.8 3.2 -0.7
v 0.8 3.3 -0.7
v 0.9 3.2 -0.7
v 1 3.2 -0.7
v 1 3.3 -0.7
v 1.1 3.3 -0.7
v 1.1 3.4 -0.7
v 1.2 3.2 -0.7
v 1.2 3.3 -0.7
v 1.3 3.2 -0.7
v 1.3 3.4 -0.7
v 0 3.3 -0.3
v 0 3.5 -0.3
v 0.1 3.3 -0.3
v 0.1 3.5 -0.3
v 0.1 3.6 -0.4
v 0.1 3.7 -0.4
v 0.2 3.6 -0.4
v 0.2 3.7 -0.4
v 0.2 3.8 -0.4
v 0.3 3.7 -0.4
v 0.3 3.8 -0.4
v 0.9 3.2 -0.4
v 0.9 3.5 -0.4
v 1 3.2 -0.4
v 1 3.5 -0.4
v 0.7 3.1 -0.5
v 0.7 3.2 -0.5
v 0.8 3.1 -0.5
v 0.8 3.2 -0.5
v 0.8 3.3 -0.5
v 0.9 3.2 -0.5
v 0.9 3.3 -0.5
v 0.2 3.1 -0.6
v 0.2 3.2 -0.6
v 0.3 3.2 -0.6
v 0.3 3.6 -0.6
v 0.3 3.7 -0.6
v 0.3 3.8 -0.6
v 0.4 3.1 -0.6
v 0.4 3.2 -0.6
v 0.4 3.8 -0.6
v 0.4 3.9 -0.6
v 0.5 2.5 -0.6
v 0.5 3.1 -0.6
v 0.5 3.2 -0.6
v 0.5 3.6 -0.6
v 0.5 3.7 -0.6
v 0.6 2 -0.6
v 0.6 2.5 -0.6
v 0.6 3.1 -0.6
v 0.6 3.2 -0.6
v 0.7 2.6 -0.6
v 0.7 3 -0.6
v 0.7 3.1 -0.6
v 0.8 2 -0.6
v 0.8 2.6 -0.6
v 0.8 3 -0.6
v 0.8 3.1 -0.6
v 0.8 3.7 -0.6
v 0.8 3.9 -0.6
v 0.2 3.6 -0.7
v 0.2 3.7 -0.7
v 0.3 3.6 -0.7
v 0.3 3.7 -0.7
v 0.4 3.1 -0.7
v 0.4 3.2 -0.7
v 0.4 3.5 -0.7
v 0.4 3.6 -0.7
v 0.5 3.1 -0.7
v 0.5 3.2 -0.7
v 0.5 3.5 -0.7
v 0.5 3.6 -0.7
v 0.5 3.7 -0.7
v 0.6 3.1 -0.7
v 0.6 3.2 -0.7
v 0.7 3.1 -0.7
v 0.7 3.2 -0.7
v 0.8 3 -0.7
v 0.8 3.1 -0.7
v 0.8 3.5 -0.7
v 0.8 3.6 -0.7
v 0.9 3 -0.7
v 0.9 3.1 -0.7
v 0.9 3.2 -0.7
v 0.9 3.6 -0.7
v 0.9 3.7 -0.7
v 1 3.1 -0.7
v 1 3.2 -0.7
v 1 3.5 -0.7
v 1 3.6 -0.7
v 0.1 3.4 -0.8
v 0.1 3.6 -0.8
v 0.4 3.5 -0.8
v 0.4 3.6 -0.8
v 0.5 3.2 -0.8
v 0.5 3.3 -0.8
v 0.5 3.4 -0.8
v 0.5 3.5 -0.8
v 0.7 3.2 -0.8
v 0.7 3.3 -0.8
v 1 3.1 -0.8
v 1 3.2 -0.8
v 1.1 3.1 -0.8
v 1.1 3.2 -0.8
v 0 3.2 -0.9
v 0 3.4 -0.9
v 0.5 3.2 -0.9
v 0.5 3.3 -0.9
v 0.5 3.4 -0.9
v 0.5 3.6 -0.9
v 0.7 3.3 -0.9
v 0.7 3.5 -0.9
v 0.8 3.5 -0.9
v 0.8 3.6 -0.9
v 1 3.4 -0.9
v 1 3.5 -0.9
v 1.1 3.4 -0.9
v 1.1 3.5 -0.9
v 1.2 3.2 -0.9
v 1.2 3.4 -0.9
v 1.3 3.2 -0.9
v 1.3 3.4 -0.9
v 0.7 3.2 -1
v 0.7 3.5 -1
v 1 3.4 -1
v 1 3.5 -1
v 1.2 3.2 -1
v 1.2 3.4 -1
v 0.6 2 -0.4
v 0.8 2 -0.4
v 0.6 2 -0.6
v 0.8 2 -0.6
v 0.5 2.5 -0.4
v 0.6 2.5 -0.4
v 0.5 2.5 -0.6
v 0.6 2.5 -0.6
v 0.7 3 -0.5
v 0.9 3 -0.5
v 0.7 3 -0.6
v 0.8 3 -0.6
v 0.8 3 -0.7
v 0.9 3 -0.7
v 0.2 3.1 -0.2
v 0.5 3.1 -0.2
v 0.6 3.1 -0.2
v 0.6 3.1 -0.3
v 0.8 3.1 -0.3
v 0.5 3.1 -0.4
v 0.6 3.1 -0.4
v 0.7 3.1 -0.4
v 0.7 3.1 -0.5
v 0.8 3.1 -0.5
v 0.2 3.1 -0.6
v 0.4 3.1 -0.6
v 0.5 3.1 -0.6
v 0.6 3.1 -0.6
v 0.7 3.1 -0.6
v 0.9 3.1 -0.6
v 1.1 3.1 -0.6
v 0.4 3.1 -0.7
v 0.5 3.1 -0.7
v 0.6 3.1 -0.7
v 0.7 3.1 -0.7
v 0.9 3.1 -0.7
v 1 3.1 -0.7
v 1 3.1 -0.8
v 1.1 3.1 -0.8
v 0.3 3.2 0
v 0.4 3.2 0
v 0.5 3.2 0
v 0.2 3.2 -0.1
v 0.3 3.2 -0.1
v 0.5 3.2 -0.1
v 0.6 3.2 -0.1
v 0.1 3.2 -0.2
v 0.2 3.2 -0.2
v 0.4 3.2 -0.2
v 0.5 3.2 -0.2
v 0.6 3.2 -0.2
v 1 3.2 -0.2
v 0.6 3.2 -0.3
v 0.8 3.2 -0.3
v 0.9 3.2 -0.4
v 1 3.2 -0.4
v 0.7 3.2 -0.5
v 0.8 3.2 -0.5
v 0.9 3.2 -0.5
v 1 3.2 -0.5
v 1.2 3.2 -0.5
v 0 3.2 -0.6
v 0.1 3.2 -0.6
v 0.2 3.2 -0.6
v 0.3 3.2 -0.6
v 0.4 3.2 -0.6
v 0.5 3.2 -0.6
v 0.6 3.2 -0.6
v 0.7 3.2 -0.6
v 1 3.2 -0.6
v 1.1 3.2 -0.6
v 0.3 3.2 -0.7
v 0.4 3.2 -0.7
v 0.5 3.2 -0.7
v 0.6 3.2 -0.7
v 0.7 3.2 -0.7
v 0.8 3.2 -0.7
v 0.9 3.2 -0.7
v 1 3.2 -0.7
v 1.2 3.2 -0.7
v 1.3 3.2 -0.7
v 0.5 3.2 -0.8
v 0.7 3.2 -0.8
v 1 3.2 -0.8
v 1.1 3.2 -0.8
v 0 3.2 -0.9
v 0.5 3.2 -0.9
v 1.2 3.2 -0.9
v 1.3 3.2 -0.9
v 0.7 3.2 -1
v 1.2 3.2 -1
v 0.1 3.3 0
v 0.3 3.3 0
v 0.5 3.3 0
v 0.6 3.3 0
v 0 3.3 -0.1
v 0.1 3.3 -0.1
v 0.2 3.3 -0.1
v 0.3 3.3 -0.1
v 0.5 3.3 -0.1
v 0.6 3.3 -0.1
v 0.9 3.3 -0.1
v 0.1 3.3 -0.2
v 0.2 3.3 -0.2
v 0.6 3.3 -0.2
v 0.9 3.3 -0.2
v 0 3.3 -0.3
v 0.1 3.3 -0.3
v 0.8 3.3 -0.5
v 0.9 3.3 -0.5
v 1 3.3 -0.5
v 0.8 3.3 -0.7
v 1 3.3 -0.7
v 0.5 3.3 -0.8
v 0.7 3.3 -0.8
v 0.5 3.3 -0.9
v 0.7 3.3 -0.9
v 0.9 3.5 -0.4
v 1 3.5 -0.4
v 0.9 3.5 -0.5
v 1 3.5 -0.5
v 0.7 2.6 -0.4
v 0.8 2.6 -0.4
v 0.7 2.6 -0.6
v 0.8 2.6 -0.6
v 0.7 3.1 -0.5
v 0.8 3.1 -0.5
v 0.9 3.1 -0.5
v 0.7 3.1 -0.6
v 0.8 3.1 -0.6
v 0.9 3.1 -0.6
v 0.8 3.1 -0.7
v 0.9 3.1 -0.7
v 0.9 3.2 -0.6
v 1 3.2 -0.6
v 0.9 3.2 -0.7
v 1 3.2 -0.7
v 1.1 3.3 -0.5
v 1.2 3.3 -0.5
v 1.1 3.3 -0.7
v 1.2 3.3 -0.7
v 0.5 3.4 0
v 0.6 3.4 0
v 0.5 3.4 -0.1
v 0.6 3.4 -0.1
v 1 3.4 -0.5
v 1.1 3.4 -0.5
v 0 3.4 -0.6
v 0.1 3.4 -0.6
v 1 3.4 -0.6
v 1.1 3.4 -0.6
v 1.1 3.4 -0.7
v 1.3 3.4 -0.7
v 0.1 3.4 -0.8
v 0.5 3.4 -0.8
v 0 3.4 -0.9
v 0.5 3.4 -0.9
v 1 3.4 -0.9
v 1.1 3.4 -0.9
v 1.2 3.4 -0.9
v 1.3 3.4 -0.9
v 1 3.4 -1
v 1.2 3.4 -1
v 0 3.5 -0.1
v 0.1 3.5 -0.1
v 0.7 3.5 -0.1
v 0.9 3.5 -0.1
v 0.7 3.5 -0.2
v 0.9 3.5 -0.2
v 1 3.5 -0.2
v 0 3.5 -0.3
v 0.1 3.5 -0.3
v 0.9 3.5 -0.3
v 1 3.5 -0.3
v 1 3.5 -0.6
v 1.1 3.5 -0.6
v 0.4 3.5 -0.7
v 0.5 3.5 -0.7
v 0.8 3.5 -0.7
v 1 3.5 -0.7
v 0.4 3.5 -0.8
v 0.5 3.5 -0.8
v 0.7 3.5 -0.9
v 0.8 3.5 -0.9
v 1 3.5 -0.9
v 1.1 3.5 -0.9
v 0.7 3.5 -1
v 1 3.5 -1
v 0.5 3.6 -0.1
v 0.7 3.6 -0.1
v 0.5 3.6 -0.2
v 0.7 3.6 -0.2
v 0.9 3.6 -0.3
v 1 3.6 -0.3
v 0.1 3.6 -0.4
v 0.2 3.6 -0.4
v 0.3 3.6 -0.6
v 0.5 3.6 -0.6
v 0.2 3.6 -0.7
v 0.3 3.6 -0.7
v 0.4 3.6 -0.7
v 0.5 3.6 -0.7
v 0.8 3.6 -0.7
v 0.9 3.6 -0.7
v 1 3.6 -0.7
v 0.1 3.6 -0.8
v 0.4 3.6 -0.8
v 0.5 3.6 -0.9
v 0.8 3.6 -0.9
v 0.1 3.7 0
v 0.5 3.7 0
v 0.2 3.7 -0.1
v 0.5 3.7 -0.1
v 0.7 3.7 -0.2
v 0.9 3.7 -0.2
v 0.7 3.7 -0.3
v 0.8 3.7 -0.3
v 0.1 3.7 -0.4
v 0.2 3.7 -0.4
v 0.3 3.7 -0.4
v 0.3 3.7 -0.6
v 0.5 3.7 -0.6
v 0.8 3.7 -0.6
v 0.2 3.7 -0.7
v 0.3 3.7 -0.7
v 0.5 3.7 -0.7
v 0.9 3.7 -0.7
v 0.2 3.8 -0.1
v 0.5 3.8 -0.1
v 0.5 3.8 -0.2
v 0.7 3.8 -0.2
v 0.4 3.8 -0.3
v 0.7 3.8 -0.3
v 0.2 3.8 -0.4
v 0.3 3.8 -0.4
v 0.3 3.8 -0.6
v 0.4 3.8 -0.6
v 0.4 3.9 -0.3
v 0.8 3.9 -0.3
v 0.4 3.9 -0.6
v 0.8 3.9 -0.6

# faces
f 5/2/1 2/2/1 1/2/1
f 6/2/1 2/2/1 5/2/1
f 7/2/1 4/2/1 3/2/1
f 8/2/1 4/2/1 7/2/1
f 13/2/1 10/2/1 9/2/1
f 14/2/1 10/2/1 13/2/1
f 15/2/1 10/2/1 14/2/1
f 17/2/1 12/2/1 11/2/1
f 18/2/1 16/2/1 15/2/1
f 18/2/1 15/2/1 14/2/1
f 19/2/1 16/2/1 18/2/1
f 19/2/1 18/2/1 17/2/1
f 20/2/1 16/2/1 19/2/1
f 21/2/1 17/2/1 11/2/1
f 21/2/1 19/2/1 17/2/1
f 22/2/1 19/2/1 21/2/1
f 26/2/1 24/2/1 23/2/1
f 27/2/1 24/2/1 26/2/1
f 28/2/1 26/2/1 25/2/1
f 29/2/1 26/2/1 28/2/1
f 33/2/1 31/2/1 30/2/1
f 34/2/1 31/2/1 33/2/1
f 35/2/1 33/2/1 32/2/1
f 36/2/1 33/2/1 35/2/1
f 39/2/1 38/2/1 37/2/1
f 40/2/1 38/2/1 39/2/1
f 43/2/1 42/2/1 41/2/1
f 44/2/1 42/2/1 43/2/1
f 47/1/1 46/1/1 45/1/1
f 48/1/1 46/1/1 47/1/1
f 51/2/1 50/2/1 49/2/1
f 52/2/1 50/2/1 51/2/1
f 55/1/1 54/1/1 53/1/1
f 56/1/1 54/1/1 55/1/1
f 60/2/1 58/2/1 57/2/1
f 62/2/1 60/2/1 59/2/1
f 63/2/1 58/2/1 60/2/1
f 63/2/1 60/2/1 62/2/1
f 64/2/1 62/2/1 61/2/1
f 65/2/1 62/2/1 64/2/1
f 68/1/1 67/1/1 66/1/1
f 69/1/1 67/1/1 68/1/1
f 72/2/1 71/2/1 70/2/1
f 73/2/1 71/2/1 72/2/1
f 76/2/1 75/2/1 74/2/1
f 77/2/1 75/2/1 76/2/1
f 78/2/1 75/2/1 77/2/1
f 79/2/1 75/2/1 78/2/1
f 82/1/1 81/1/1 80/1/1
f 83/1/1 81/1/1 82/1/1
f 86/1/1 85/1/1 84/1/1
f 87/1/1 85/1/1 86/1/1
f 92/1/1 89/1/1 88/1/1
f 93/1/1 89/1/1 92/1/1
f 94/2/1 91/2/1 90/2/1
f 94/2/1 92/2/1 91/2/1
f 95/2/1 92/2/1 94/2/1
f 96/2/2 97/2/2 98/2/2
f 98/2/2 97/2/2 99/2/2
f 100/2/2 101/2/2 102/2/2
f 102/2/2 101/2/2 103/2/2
f 104/1/2 105/1/2 108/1/2
f 108/1/2 105/1/2 109/1/2
f 106/1/2 107/1/2 112/1/2
f 112/1/2 107/1/2 113/1/2
f 110/2/2 111/2/2 114/2/2
f 114/2/2 111/2/2 115/2/2
f 116/2/2 117/2/2 118/2/2
f 116/2/2 118/2/2 120/2/2
f 118/2/2 119/2/2 120/2/2
f 120/2/2 119/2/2 121/2/2
f 121/2/2 119/2/2 122/2/2
f 122/2/2 119/2/2 123/2/2
f 124/1/2 125/1/2 127/1/2
f 127/1/2 125/1/2 128/1/2
f 126/1/2 127/1/2 130/1/2
f 130/1/2 127/1/2 131/1/2
f 129/2/2 130/2/2 132/2/2
f 132/2/2 130/2/2 133/2/2
f 134/1/2 135/1/2 136/1/2
f 136/1/2 135/1/2 137/1/2
f 134/1/2 136/1/2 138/1/2
f 138/1/2 136/1/2 139/1/2
f 139/1/2 140/1/2 142/1/2
f 140/2/2 141/2/2 143/2/2
f 142/1/2 140/1/2 143/1/2
f 143/2/2 141/2/2 144/2/2
f 145/2/2 146/2/2 147/2/2
f 147/2/2 146/2/2 148/2/2
f 149/2/2 150/2/2 151/2/2
f 151/2/2 150/2/2 152/2/2
f 153/1/2 154/1/2 155/1/2
f 155/1/2 154/1/2 156/1/2
f 157/2/2 158/2/2 159/2/2
f 159/2/2 158/2/2 160/2/2
f 160/2/2 161/2/2 162/2/2
f 162/2/2 161/2/2 163/2/2
f 164/2/2 165/2/2 166/2/2
f 166/2/2 165/2/2 167/2/2
f 168/2/2 169/2/2 170/2/2
f 170/2/2 169/2/2 171/2/2
f 172/1/2 173/1/2 174/1/2
f 174/1/2 173/1/2 175/1/2
f 175/1/2 173/1/2 176/1/2
f 177/2/2 178/2/2 181/2/2
f 179/2/2 180/2/2 182/2/2
f 182/2/2 180/2/2 183/2/2
f 177/2/2 181/2/2 185/2/2
f 185/2/2 181/2/2 186/2/2
f 183/2/2 184/2/2 187/2/2
f 183/2/2 187/2/2 189/2/2
f 187/2/2 188/2/2 189/2/2
f 189/2/2 188/2/2 190/2/2
f 191/2/2 192/2/2 197/2/2
f 197/2/2 192/2/2 198/2/2
f 198/2/2 192/2/2 199/2/2
f 193/2/2 194/2/2 200/2/2
f 200/2/2 194/2/2 201/2/2
f 195/2/2 196/2/2 203/2/2
f 203/2/2 196/2/2 204/2/2
f 201/2/2 202/2/2 205/2/2
f 198/2/2 199/2/2 205/2/2
f 200/2/2 201/2/2 205/2/2
f 199/2/2 200/2/2 205/2/2
f 205/2/2 202/2/2 206/2/2
f 207/1/2 208/1/2 209/1/2
f 209/1/2 208/1/2 210/1/2
f 211/2/2 212/2/2 213/2/2
f 213/2/2 212/2/2 214/2/2
f 214/2/2 212/2/2 215/2/2
f 214/2/2 215/2/2 217/2/2
f 215/2/2 216/2/2 217/2/2
f 217/2/2 216/2/2 218/2/2
f 219/2/2 220/2/2 223/2/2
f 223/2/2 220/2/2 224/2/2
f 221/2/2 222/2/2 225/2/2
f 225/2/2 222/2/2 226/2/2
f 227/2/2 228/2/2 229/2/2
f 229/2/2 228/2/2 230/2/2
f 234/2/3 232/2/3 231/2/3
f 235/2/3 234/2/3 233/2/3
f 236/2/3 232/2/3 234/2/3
f 236/2/3 234/2/3 235/2/3
f 237/1/3 236/1/3 235/1/3
f 238/2/3 232/2/3 236/2/3
f 238/1/3 236/1/3 237/1/3
f 239/2/3 232/2/3 238/2/3
f 240/2/3 232/2/3 239/2/3
f 241/2/3 239/2/3 238/2/3
f 242/2/3 239/2/3 241/2/3
f 245/2/3 244/2/3 243/2/3
f 246/2/3 244/2/3 245/2/3
f 251/2/3 248/2/3 247/2/3
f 252/2/3 248/2/3 251/2/3
f 257/2/3 250/2/3 249/2/3
f 258/2/3 250/2/3 257/2/3
f 259/1/3 254/1/3 253/1/3
f 260/1/3 254/1/3 259/1/3
f 261/2/3 256/2/3 255/2/3
f 262/2/3 261/2/3 260/2/3
f 262/2/3 256/2/3 261/2/3
f 263/2/3 256/2/3 262/2/3
f 264/2/3 262/2/3 260/2/3
f 265/2/3 262/2/3 264/2/3
f 269/2/3 267/2/3 266/2/3
f 270/2/3 267/2/3 269/2/3
f 271/2/3 269/2/3 268/2/3
f 272/2/3 271/2/3 268/2/3
f 273/2/3 271/2/3 272/2/3
f 276/1/3 273/1/3 272/1/3
f 277/1/3 273/1/3 276/1/3
f 280/2/3 275/2/3 274/2/3
f 281/2/3 275/2/3 280/2/3
f 282/2/3 275/2/3 281/2/3
f 283/2/3 278/2/3 277/2/3
f 284/2/3 280/2/3 279/2/3
f 284/2/3 281/2/3 280/2/3
f 285/2/3 281/2/3 284/2/3
f 286/2/3 283/2/3 277/2/3
f 286/2/3 284/2/3 283/2/3
f 287/2/3 284/2/3 286/2/3
f 293/2/3 289/2/3 288/2/3
f 294/2/3 291/2/3 290/2/3
f 295/2/3 291/2/3 294/2/3
f 296/2/3 293/2/3 292/2/3
f 297/2/3 289/2/3 293/2/3
f 297/2/3 293/2/3 296/2/3
f 300/2/3 299/2/3 298/2/3
f 301/2/3 299/2/3 300/2/3
f 305/1/3 303/1/3 302/1/3
f 306/1/3 303/1/3 305/1/3
f 307/1/3 305/1/3 304/1/3
f 307/1/3 306/1/3 305/1/3
f 308/1/3 306/1/3 307/1/3
f 309/1/3 307/1/3 304/1/3
f 310/1/3 307/1/3 309/1/3
f 313/1/3 312/1/3 311/1/3
f 314/1/3 313/1/3 311/1/3
f 315/1/3 313/1/3 314/1/3
f 319/2/3 317/2/3 316/2/3
f 320/2/3 317/2/3 319/2/3
f 321/2/3 317/2/3 320/2/3
f 322/2/3 319/2/3 318/2/3
f 322/2/3 320/2/3 319/2/3
f 323/2/3 320/2/3 322/2/3
f 324/2/3 322/2/3 318/2/3
f 325/2/3 322/2/3 324/2/3
f 328/2/3 327/2/3 326/2/3
f 329/2/3 327/2/3 328/2/3
f 332/1/3 331/1/3 330/1/3
f 335/1/3 332/1/3 330/1/3
f 336/1/3 332/1/3 335/1/3
f 337/2/3 334/2/3 333/2/3
f 338/2/3 334/2/3 337/2/3
f 341/2/3 340/2/3 339/2/3
f 342/2/3 340/2/3 341/2/3
f 343/2/3 340/2/3 342/2/3
f 347/2/3 345/2/3 344/2/3
f 348/2/3 347/2/3 346/2/3
f 349/2/3 345/2/3 347/2/3
f 349/2/3 347/2/3 348/2/3
f 350/2/4 351/2/4 352/2/4
f 352/2/4 351/2/4 353/2/4
f 354/2/4 355/2/4 356/2/4
f 356/2/4 355/2/4 357/2/4
f 357/2/4 358/2/4 359/2/4
f 359/2/4 358/2/4 360/2/4
f 361/2/4 362/2/4 363/2/4
f 363/2/4 362/2/4 364/2/4
f 365/2/4 366/2/4 367/2/4
f 367/2/4 366/2/4 368/2/4
f 368/2/4 369/2/4 370/2/4
f 370/2/4 369/2/4 371/2/4
f 372/2/4 373/2/4 374/2/4
f 372/2/4 374/2/4 378/2/4
f 378/2/4 374/2/4 379/2/4
f 376/2/4 377/2/4 380/2/4
f 375/2/4 376/2/4 380/2/4
f 380/2/4 381/2/4 385/2/4
f 375/2/4 380/2/4 385/2/4
f 385/2/4 381/2/4 386/2/4
f 383/1/4 384/1/4 388/1/4
f 382/1/4 383/1/4 388/1/4
f 388/1/4 384/1/4 389/1/4
f 389/1/4 384/1/4 390/1/4
f 387/1/4 388/1/4 391/1/4
f 388/1/4 389/1/4 391/1/4
f 391/1/4 389/1/4 392/1/4
f 392/1/4 389/1/4 393/1/4
f 387/1/4 391/1/4 394/1/4
f 394/1/4 391/1/4 395/1/4
f 392/1/4 393/1/4 396/1/4
f 396/1/4 393/1/4 397/1/4
f 386/2/4 381/2/4 398/2/4
f 398/2/4 381/2/4 399/2/4
f 400/2/4 401/2/4 402/2/4
f 402/2/4 401/2/4 403/2/4
f 404/1/4 405/1/4 408/1/4
f 408/1/4 405/1/4 409/1/4
f 406/2/4 407/2/4 410/2/4
f 410/2/4 407/2/4 411/2/4
f 413/2/4 414/2/4 415/2/4
f 415/2/4 414/2/4 416/2/4
f 411/2/4 412/2/4 420/2/4
f 417/1/4 418/1/4 421/1/4
f 421/1/4 418/1/4 422/1/4
f 419/2/4 420/2/4 424/2/4
f 420/2/4 412/2/4 424/2/4
f 424/2/4 412/2/4 425/2/4
f 422/1/4 423/1/4 426/1/4
f 426/1/4 423/1/4 427/1/4
f 419/2/4 424/2/4 428/2/4
f 428/2/4 424/2/4 429/2/4
f 430/2/4 431/2/4 432/2/4
f 432/2/4 431/2/4 433/2/4
f 430/2/4 432/2/4 436/2/4
f 436/2/4 432/2/4 437/2/4
f 434/2/4 435/2/4 438/2/4
f 438/2/4 435/2/4 439/2/4
f 440/1/4 441/1/4 442/1/4
f 442/1/4 441/1/4 443/1/4
f 444/2/4 445/2/4 446/2/4
f 446/2/4 445/2/4 447/2/4
f 447/2/4 445/2/4 448/2/4
f 448/2/4 449/2/4 450/2/4
f 447/2/4 448/2/4 450/2/4
f 450/2/4 449/2/4 451/2/4
f 451/2/4 449/2/4 452/2/4
f 452/2/4 449/2/4 453/2/4
f 454/2/4 455/2/4 456/2/4
f 456/2/4 455/2/4 457/2/4
f 458/2/4 459/2/4 460/2/4
f 460/2/4 459/2/4 461/2/4
f 462/2/4 463/2/4 464/2/4
f 464/2/4 463/2/4 465/2/4
f 462/2/4 464/2/4 466/2/4
f 466/2/4 464/2/4 467/2/4
f 470/1/5 469/1/5 468/1/5
f 471/1/5 469/1/5 470/1/5
f 474/1/5 473/1/5 472/1/5
f 475/1/5 473/1/5 474/1/5
f 478/1/5 477/1/5 476/1/5
f 479/1/5 477/1/5 478/1/5
f 480/1/5 477/1/5 479/1/5
f 481/1/5 477/1/5 480/1/5
f 485/1/5 484/1/5 483/1/5
f 487/2/5 483/2/5 482/2/5
f 487/1/5 485/1/5 483/1/5
f 488/2/5 486/2/5 485/2/5
f 488/1/5 485/1/5 487/1/5
f 489/2/5 486/2/5 488/2/5
f 490/2/5 486/2/5 489/2/5
f 491/2/5 486/2/5 490/2/5
f 492/2/5 487/2/5 482/2/5
f 493/2/5 487/2/5 492/2/5
f 494/2/5 487/2/5 493/2/5
f 499/1/5 494/1/5 493/1/5
f 500/1/5 494/1/5 499/1/5
f 501/2/5 496/2/5 495/2/5
f 502/2/5 496/2/5 501/2/5
f 503/1/5 498/1/5 497/1/5
f 504/1/5 498/1/5 503/1/5
f 505/1/5 498/1/5 504/1/5
f 506/1/5 498/1/5 505/1/5
f 511/2/5 508/2/5 507/2/5
f 512/1/5 509/1/5 508/1/5
f 515/2/5 511/2/5 510/2/5
f 516/1/5 513/1/5 512/1/5
f 516/2/5 508/2/5 511/2/5
f 516/2/5 511/2/5 515/2/5
f 516/1/5 512/1/5 508/1/5
f 517/1/5 513/1/5 516/1/5
f 518/1/5 513/1/5 517/1/5
f 520/2/5 519/2/5 518/2/5
f 521/2/5 519/2/5 520/2/5
f 522/2/5 519/2/5 521/2/5
f 523/2/5 519/2/5 522/2/5
f 525/2/5 522/2/5 521/2/5
f 526/2/5 522/2/5 525/2/5
f 530/2/5 515/2/5 514/2/5
f 531/2/5 515/2/5 530/2/5
f 536/2/5 525/2/5 524/2/5
f 537/2/5 528/2/5 527/2/5
f 538/2/5 528/2/5 537/2/5
f 539/2/5 530/2/5 529/2/5
f 539/2/5 531/2/5 530/2/5
f 539/2/5 532/2/5 531/2/5
f 539/1/5 533/1/5 532/1/5
f 540/1/5 533/1/5 539/1/5
f 541/2/5 535/2/5 534/2/5
f 542/2/5 535/2/5 541/2/5
f 543/2/5 525/2/5 536/2/5
f 544/2/5 525/2/5 543/2/5
f 547/2/5 528/2/5 538/2/5
f 549/2/5 540/2/5 539/2/5
f 549/2/5 542/2/5 541/2/5
f 549/2/5 546/2/5 545/2/5
f 549/2/5 545/2/5 544/2/5
f 549/2/5 544/2/5 543/2/5
f 549/2/5 543/2/5 542/2/5
f 549/2/5 541/2/5 540/2/5
f 550/2/5 546/2/5 549/2/5
f 551/2/5 546/2/5 550/2/5
f 552/2/5 548/2/5 547/2/5
f 552/2/5 547/2/5 538/2/5
f 553/2/5 539/2/5 529/2/5
f 553/2/5 549/2/5 539/2/5
f 554/2/5 549/2/5 553/2/5
f 555/2/5 551/2/5 550/2/5
f 555/2/5 552/2/5 551/2/5
f 555/2/5 548/2/5 552/2/5
f 556/2/5 548/2/5 555/2/5
f 557/2/5 555/2/5 550/2/5
f 558/2/5 555/2/5 557/2/5
f 564/2/5 560/2/5 559/2/5
f 565/2/5 560/2/5 564/2/5
f 566/2/5 560/2/5 565/2/5
f 567/2/5 562/2/5 561/2/5
f 568/2/5 562/2/5 567/2/5
f 570/2/5 564/2/5 563/2/5
f 570/2/5 565/2/5 564/2/5
f 571/2/5 565/2/5 570/2/5
f 572/2/5 569/2/5 568/2/5
f 573/2/5 569/2/5 572/2/5
f 574/2/5 570/2/5 563/2/5
f 575/2/5 570/2/5 574/2/5
f 579/2/5 577/2/5 576/2/5
f 579/2/5 578/2/5 577/2/5
f 580/2/5 578/2/5 579/2/5
f 583/2/5 582/2/5 581/2/5
f 584/2/5 582/2/5 583/2/5
f 587/2/5 586/2/5 585/2/5
f 588/2/5 586/2/5 587/2/5
f 589/1/6 590/1/6 591/1/6
f 591/1/6 590/1/6 592/1/6
f 593/1/6 594/1/6 596/1/6
f 594/1/6 595/1/6 596/1/6
f 596/1/6 595/1/6 597/1/6
f 597/1/6 595/1/6 598/1/6
f 597/1/6 598/1/6 599/1/6
f 599/1/6 598/1/6 600/1/6
f 601/1/6 602/1/6 603/1/6
f 603/1/6 602/1/6 604/1/6
f 605/2/6 606/2/6 607/2/6
f 607/2/6 606/2/6 608/2/6
f 609/2/6 610/2/6 611/2/6
f 611/2/6 610/2/6 612/2/6
f 613/2/6 614/2/6 617/2/6
f 617/2/6 614/2/6 618/2/6
f 615/2/6 616/2/6 621/2/6
f 615/2/6 621/2/6 623/2/6
f 621/2/6 622/2/6 623/2/6
f 623/2/6 622/2/6 624/2/6
f 619/2/6 620/2/6 626/2/6
f 626/2/6 620/2/6 627/2/6
f 627/2/6 620/2/6 628/2/6
f 625/2/6 626/2/6 629/2/6
f 626/2/6 627/2/6 629/2/6
f 629/2/6 627/2/6 630/2/6
f 633/2/6 634/2/6 635/2/6
f 635/2/6 634/2/6 636/2/6
f 631/2/6 632/2/6 638/2/6
f 638/2/6 632/2/6 639/2/6
f 636/2/6 637/2/6 640/2/6
f 640/2/6 637/2/6 641/2/6
f 642/2/6 643/2/6 647/2/6
f 644/2/6 645/2/6 648/2/6
f 648/2/6 645/2/6 649/2/6
f 646/2/6 647/2/6 651/2/6
f 647/2/6 643/2/6 652/2/6
f 651/2/6 647/2/6 652/2/6
f 652/2/6 643/2/6 653/2/6
f 650/2/6 651/2/6 654/2/6
f 651/2/6 652/2/6 654/2/6
f 654/2/6 652/2/6 655/2/6
f 656/2/6 657/2/6 658/2/6
f 658/2/6 657/2/6 659/2/6
f 662/2/6 663/2/6 666/2/6
f 664/2/6 665/2/6 667/2/6
f 667/2/6 665/2/6 668/2/6
f 668/2/6 665/2/6 669/2/6
f 660/2/6 661/2/6 671/2/6
f 671/2/6 661/2/6 672/2/6
f 662/2/6 666/2/6 673/2/6
f 666/2/6 667/2/6 673/2/6
f 667/2/6 668/2/6 673/2/6
f 673/2/6 668/2/6 674/2/6
f 669/2/6 670/2/6 675/2/6
f 675/2/6 670/2/6 676/2/6
f 677/2/6 678/2/6 679/2/6
f 679/2/6 678/2/6 680/2/6
f 681/2/6 682/2/6 683/2/6
f 683/2/6 682/2/6 684/2/6
f 677/2/6 679/2/6 685/2/6
f 685/2/6 679/2/6 686/2/6
f 686/2/6 687/2/6 688/2/6
f 684/2/6 682/2/6 690/2/6
f 686/2/6 688/2/6 691/2/6
f 691/2/6 688/2/6 692/2/6
f 689/2/6 690/2/6 693/2/6
f 690/2/6 682/2/6 694/2/6
f 693/2/6 690/2/6 694/2/6
f 695/2/6 696/2/6 697/2/6
f 695/2/6 697/2/6 699/2/6
f 697/2/6 698/2/6 699/2/6
f 699/2/6 698/2/6 700/2/6
f 695/2/6 699/2/6 701/2/6
f 701/2/6 699/2/6 702/2/6
f 702/2/6 699/2/6 703/2/6
f 703/2/6 699/2/6 704/2/6
f 705/2/6 706/2/6 707/2/6
f 707/2/6 706/2/6 708/2/6
