# MagicaVoxel @ Ephtracy

# group
o 

# material
mtllib haus1.mtl
usemtl palette

# normals
vn -1 0 0
vn 1 0 0
vn 0 0 1
vn 0 0 -1
vn 0 -1 0
vn 0 1 0

# texcoords
vt 0.908203 0.5
vt 0.923828 0.5
vt 0.947266 0.5
vt 0.970703 0.5
vt 0.990234 0.5

# verts
v -0.3 0 0.8
v -0.3 0 0.7
v -0.3 0 0.5
v -0.3 0 0.4
v -0.3 0.3 0.8
v -0.3 0.3 0.7
v -0.3 0.3 0.5
v -0.3 0.3 0.4
v -0.3 0.4 0.7
v -0.3 0.4 0.5
v -0.3 0.9 1
v -0.3 0.9 0.9
v -0.3 0.9 -0.3
v -0.3 0.9 -0.4
v -0.3 1 1
v -0.3 1 0.9
v -0.3 1 0.8
v -0.3 1 -0.2
v -0.3 1 -0.3
v -0.3 1 -0.4
v -0.3 1.1 0.9
v -0.3 1.1 0.8
v -0.3 1.1 0.7
v -0.3 1.1 -0.1
v -0.3 1.1 -0.2
v -0.3 1.1 -0.3
v -0.3 1.2 0.8
v -0.3 1.2 0.7
v -0.3 1.2 0.6
v -0.3 1.2 -1.19209e-007
v -0.3 1.2 -0.1
v -0.3 1.2 -0.2
v -0.3 1.3 0.7
v -0.3 1.3 0.6
v -0.3 1.3 0.5
v -0.3 1.3 0.0999999
v -0.3 1.3 -1.19209e-007
v -0.3 1.3 -0.1
v -0.3 1.4 0.6
v -0.3 1.4 0.5
v -0.3 1.4 0.4
v -0.3 1.4 0.2
v -0.3 1.4 0.0999999
v -0.3 1.4 -1.19209e-007
v -0.3 1.5 0.5
v -0.3 1.5 0.4
v -0.3 1.5 0.2
v -0.3 1.5 0.0999999
v -0.3 1.6 0.4
v -0.3 1.6 0.2
v -0.2 0.4 0.9
v -0.2 0.4 0.7
v -0.2 0.4 0.5
v -0.2 0.4 -0.3
v -0.2 0.5 0.8
v -0.2 0.5 0.7
v -0.2 0.5 0.5
v -0.2 0.5 0.0999999
v -0.2 0.5 -0.1
v -0.2 0.5 -0.2
v -0.2 0.8 0.7
v -0.2 0.8 0.5
v -0.2 0.8 0.0999999
v -0.2 0.8 -0.1
v -0.2 0.9 0.9
v -0.2 0.9 -0.3
v -0.2 1 0.9
v -0.2 1 0.8
v -0.2 1 -0.2
v -0.2 1 -0.3
v -0.2 1.1 0.8
v -0.2 1.1 0.7
v -0.2 1.1 0.4
v -0.2 1.1 0.2
v -0.2 1.1 -0.1
v -0.2 1.1 -0.2
v -0.2 1.2 0.7
v -0.2 1.2 0.6
v -0.2 1.2 -1.19209e-007
v -0.2 1.2 -0.1
v -0.2 1.3 0.6
v -0.2 1.3 0.5
v -0.2 1.3 0.4
v -0.2 1.3 0.2
v -0.2 1.3 0.0999999
v -0.2 1.3 -1.19209e-007
v -0.2 1.4 0.5
v -0.2 1.4 0.4
v -0.2 1.4 0.2
v -0.2 1.4 0.0999999
v -0.2 1.5 0.4
v -0.2 1.5 0.2
v -0.1 0 0.7
v -0.1 0 0.5
v -0.1 0 0.4
v -0.1 0 -0.1
v -0.1 0 -0.2
v -0.1 0.1 0.2
v -0.1 0.1 -1.19209e-007
v -0.1 0.3 0.8
v -0.1 0.3 0.7
v -0.1 0.3 0.5
v -0.1 0.3 0.4
v -0.1 0.3 0.2
v -0.1 0.3 -1.19209e-007
v -0.1 0.4 0.8
v -0.1 0.4 0.7
v -0.1 0.4 0.5
v -0.1 0.4 -0.1
v -0.1 0.4 -0.2
v -0.1 0.5 0.7
v -0.1 0.5 0.5
v -0.1 0.5 0.0999999
v -0.1 0.5 -0.1
v -0.1 0.8 0.7
v -0.1 0.8 0.5
v -0.1 0.8 0.0999999
v -0.1 0.8 -0.1
v -0.1 1.1 0.4
v -0.1 1.1 0.2
v -0.1 1.3 0.4
v -0.1 1.3 0.2
v 2.98023e-008 0.1 0.2
v 2.98023e-008 0.1 -1.19209e-007
v 2.98023e-008 0.3 0.2
v 2.98023e-008 0.3 -1.19209e-007
v 0.2 0.5 0.9
v 0.2 0.5 0.8
v 0.2 0.5 -0.2
v 0.2 0.5 -0.3
v 0.2 0.8 0.9
v 0.2 0.8 0.8
v 0.2 0.8 -0.2
v 0.2 0.8 -0.3
v 0.3 0.1 0.8
v 0.3 0.1 0.7
v 0.3 0.1 -0.1
v 0.3 0.1 -0.2
v 0.3 0.3 0.8
v 0.3 0.3 0.7
v 0.3 0.3 -0.1
v 0.3 0.3 -0.2
v 0.6 1.3 0.7
v 0.6 1.3 0.6
v 0.6 1.4 0.6
v 0.6 1.9 0.7
v 0.6 1.9 0.6
v 0.7 0.1 0.8
v 0.7 0.1 0.7
v 0.7 0.1 -0.1
v 0.7 0.1 -0.2
v 0.7 0.3 0.8
v 0.7 0.3 0.7
v 0.7 0.3 -0.1
v 0.7 0.3 -0.2
v 0.8 0.5 0.9
v 0.8 0.5 0.8
v 0.8 0.5 -0.2
v 0.8 0.5 -0.3
v 0.8 0.8 0.9
v 0.8 0.8 0.8
v 0.8 0.8 -0.2
v 0.8 0.8 -0.3
v 2.98023e-008 0.5 0.9
v 2.98023e-008 0.5 0.8
v 2.98023e-008 0.5 -0.2
v 2.98023e-008 0.5 -0.3
v 2.98023e-008 0.8 0.9
v 2.98023e-008 0.8 0.8
v 2.98023e-008 0.8 -0.2
v 2.98023e-008 0.8 -0.3
v 0.1 0.1 0.8
v 0.1 0.1 0.7
v 0.1 0.1 -0.1
v 0.1 0.1 -0.2
v 0.1 0.3 0.8
v 0.1 0.3 0.7
v 0.1 0.3 -0.1
v 0.1 0.3 -0.2
v 0.5 0.1 0.8
v 0.5 0.1 0.7
v 0.5 0.1 -0.1
v 0.5 0.1 -0.2
v 0.5 0.3 0.8
v 0.5 0.3 0.7
v 0.5 0.3 -0.1
v 0.5 0.3 -0.2
v 0.6 0.5 0.9
v 0.6 0.5 0.8
v 0.6 0.5 -0.2
v 0.6 0.5 -0.3
v 0.6 0.8 0.9
v 0.6 0.8 0.8
v 0.6 0.8 -0.2
v 0.6 0.8 -0.3
v 0.7 1.3 0.7
v 0.7 1.3 0.6
v 0.7 1.4 0.6
v 0.7 1.9 0.7
v 0.7 1.9 0.6
v 0.8 0.1 0.6
v 0.8 0.1 0.4
v 0.8 0.1 0.2
v 0.8 0.1 -1.19209e-007
v 0.8 0.3 0.6
v 0.8 0.3 0.4
v 0.8 0.3 0.2
v 0.8 0.3 -1.19209e-007
v 0.9 0 0.8
v 0.9 0 0.7
v 0.9 0 -0.1
v 0.9 0 -0.2
v 0.9 0.1 0.6
v 0.9 0.1 0.4
v 0.9 0.1 0.2
v 0.9 0.1 -1.19209e-007
v 0.9 0.3 0.6
v 0.9 0.3 0.4
v 0.9 0.3 0.2
v 0.9 0.3 -1.19209e-007
v 0.9 0.4 0.8
v 0.9 0.4 0.7
v 0.9 0.4 -0.1
v 0.9 0.4 -0.2
v 1 0.4 0.9
v 1 0.4 -0.3
v 1 0.5 0.8
v 1 0.5 -0.2
v 1 0.9 0.9
v 1 0.9 -0.3
v 1 1 0.9
v 1 1 0.8
v 1 1 -0.2
v 1 1 -0.3
v 1 1.1 0.8
v 1 1.1 0.7
v 1 1.1 -0.1
v 1 1.1 -0.2
v 1 1.2 0.7
v 1 1.2 0.6
v 1 1.2 -1.19209e-007
v 1 1.2 -0.1
v 1 1.3 0.6
v 1 1.3 0.5
v 1 1.3 0.0999999
v 1 1.3 -1.19209e-007
v 1 1.4 0.5
v 1 1.4 0.4
v 1 1.4 0.2
v 1 1.4 0.0999999
v 1 1.5 0.4
v 1 1.5 0.2
v 1.1 0.9 1
v 1.1 0.9 0.9
v 1.1 0.9 -0.3
v 1.1 0.9 -0.4
v 1.1 1 1
v 1.1 1 0.9
v 1.1 1 0.8
v 1.1 1 -0.2
v 1.1 1 -0.3
v 1.1 1 -0.4
v 1.1 1.1 0.9
v 1.1 1.1 0.8
v 1.1 1.1 0.7
v 1.1 1.1 -0.1
v 1.1 1.1 -0.2
v 1.1 1.1 -0.3
v 1.1 1.2 0.8
v 1.1 1.2 0.7
v 1.1 1.2 0.6
v 1.1 1.2 -1.19209e-007
v 1.1 1.2 -0.1
v 1.1 1.2 -0.2
v 1.1 1.3 0.7
v 1.1 1.3 0.6
v 1.1 1.3 0.5
v 1.1 1.3 0.0999999
v 1.1 1.3 -1.19209e-007
v 1.1 1.3 -0.1
v 1.1 1.4 0.6
v 1.1 1.4 0.5
v 1.1 1.4 0.4
v 1.1 1.4 0.2
v 1.1 1.4 0.0999999
v 1.1 1.4 -1.19209e-007
v 1.1 1.5 0.5
v 1.1 1.5 0.4
v 1.1 1.5 0.2
v 1.1 1.5 0.0999999
v 1.1 1.6 0.4
v 1.1 1.6 0.2
v -0.3 0.9 1
v -0.3 1 1
v 1.1 0.9 1
v 1.1 1 1
v -0.3 1 0.9
v -0.3 1.1 0.9
v -0.2 0.4 0.9
v -0.2 0.9 0.9
v -0.1 0.5 0.9
v -0.1 0.9 0.9
v 2.98023e-008 0.5 0.9
v 2.98023e-008 0.8 0.9
v 0.2 0.5 0.9
v 0.2 0.8 0.9
v 0.6 0.5 0.9
v 0.6 0.8 0.9
v 0.8 0.5 0.9
v 0.8 0.8 0.9
v 0.9 0.5 0.9
v 0.9 0.9 0.9
v 1 0.4 0.9
v 1 0.9 0.9
v 1.1 1 0.9
v 1.1 1.1 0.9
v -0.3 0 0.8
v -0.3 0.3 0.8
v -0.3 1.1 0.8
v -0.3 1.2 0.8
v -0.1 0 0.8
v -0.1 0.3 0.8
v -0.1 0.4 0.8
v 2.98023e-008 0 0.8
v 2.98023e-008 0.4 0.8
v 2.98023e-008 0.5 0.8
v 2.98023e-008 0.8 0.8
v 0.1 0.1 0.8
v 0.1 0.3 0.8
v 0.2 0.5 0.8
v 0.2 0.8 0.8
v 0.3 0.1 0.8
v 0.3 0.3 0.8
v 0.5 0.1 0.8
v 0.5 0.3 0.8
v 0.6 0.5 0.8
v 0.6 0.8 0.8
v 0.7 0.1 0.8
v 0.7 0.3 0.8
v 0.8 0 0.8
v 0.8 0.4 0.8
v 0.8 0.5 0.8
v 0.8 0.8 0.8
v 0.9 0 0.8
v 0.9 0.4 0.8
v 1.1 1.1 0.8
v 1.1 1.2 0.8
v -0.3 0.3 0.7
v -0.3 0.4 0.7
v -0.3 1.2 0.7
v -0.3 1.3 0.7
v -0.2 0.4 0.7
v -0.1 0.3 0.7
v -0.1 0.4 0.7
v 0.1 0.1 0.7
v 0.1 0.3 0.7
v 0.3 0.1 0.7
v 0.3 0.3 0.7
v 0.5 0.1 0.7
v 0.5 0.3 0.7
v 0.6 1.3 0.7
v 0.6 1.9 0.7
v 0.7 0.1 0.7
v 0.7 0.3 0.7
v 0.7 1.3 0.7
v 0.7 1.9 0.7
v 1.1 1.2 0.7
v 1.1 1.3 0.7
v -0.3 1.3 0.6
v -0.3 1.4 0.6
v 0.6 1.3 0.6
v 0.6 1.4 0.6
v 0.7 1.3 0.6
v 0.7 1.4 0.6
v 1.1 1.3 0.6
v 1.1 1.4 0.6
v -0.3 0 0.5
v -0.3 0.3 0.5
v -0.3 1.4 0.5
v -0.3 1.5 0.5
v -0.2 0.5 0.5
v -0.2 0.8 0.5
v -0.1 0 0.5
v -0.1 0.3 0.5
v -0.1 0.5 0.5
v -0.1 0.8 0.5
v 1.1 1.4 0.5
v 1.1 1.5 0.5
v -0.3 1.5 0.4
v -0.3 1.6 0.4
v 0.8 0.1 0.4
v 0.8 0.3 0.4
v 0.9 0.1 0.4
v 0.9 0.3 0.4
v 1.1 1.5 0.4
v 1.1 1.6 0.4
v -0.3 1.4 0.2
v -0.3 1.5 0.2
v -0.2 1.1 0.2
v -0.2 1.3 0.2
v -0.2 1.4 0.2
v -0.2 1.5 0.2
v -0.1 1.1 0.2
v -0.1 1.3 0.2
v 1 1.4 0.2
v 1 1.5 0.2
v 1.1 1.4 0.2
v 1.1 1.5 0.2
v -0.3 1.3 0.0999999
v -0.3 1.4 0.0999999
v -0.2 1.3 0.0999999
v -0.2 1.4 0.0999999
v 1 1.3 0.0999999
v 1 1.4 0.0999999
v 1.1 1.3 0.0999999
v 1.1 1.4 0.0999999
v -0.3 1.2 -1.19209e-007
v -0.3 1.3 -1.19209e-007
v -0.2 1.2 -1.19209e-007
v -0.2 1.3 -1.19209e-007
v -0.1 0.1 -1.19209e-007
v -0.1 0.3 -1.19209e-007
v 2.98023e-008 0.1 -1.19209e-007
v 2.98023e-008 0.3 -1.19209e-007
v 0.8 0.1 -1.19209e-007
v 0.8 0.3 -1.19209e-007
v 0.9 0.1 -1.19209e-007
v 0.9 0.3 -1.19209e-007
v 1 1.2 -1.19209e-007
v 1 1.3 -1.19209e-007
v 1.1 1.2 -1.19209e-007
v 1.1 1.3 -1.19209e-007
v -0.3 1.1 -0.1
v -0.3 1.2 -0.1
v -0.2 0.5 -0.1
v -0.2 0.8 -0.1
v -0.2 1.1 -0.1
v -0.2 1.2 -0.1
v -0.1 0.5 -0.1
v -0.1 0.8 -0.1
v 1 1.1 -0.1
v 1 1.2 -0.1
v 1.1 1.1 -0.1
v 1.1 1.2 -0.1
v -0.3 1 -0.2
v -0.3 1.1 -0.2
v -0.2 1 -0.2
v -0.2 1.1 -0.2
v 1 1 -0.2
v 1 1.1 -0.2
v 1.1 1 -0.2
v 1.1 1.1 -0.2
v -0.3 0.9 -0.3
v -0.3 1 -0.3
v -0.2 0.9 -0.3
v -0.2 1 -0.3
v 1 0.9 -0.3
v 1 1 -0.3
v 1.1 0.9 -0.3
v 1.1 1 -0.3
v -0.3 0.9 0.9
v -0.3 1 0.9
v -0.2 0.9 0.9
v -0.2 1 0.9
v 1 0.9 0.9
v 1 1 0.9
v 1.1 0.9 0.9
v 1.1 1 0.9
v -0.3 1 0.8
v -0.3 1.1 0.8
v -0.2 1 0.8
v -0.2 1.1 0.8
v 1 1 0.8
v 1 1.1 0.8
v 1.1 1 0.8
v 1.1 1.1 0.8
v -0.3 0 0.7
v -0.3 0.3 0.7
v -0.3 1.1 0.7
v -0.3 1.2 0.7
v -0.2 0.5 0.7
v -0.2 0.8 0.7
v -0.2 1.1 0.7
v -0.2 1.2 0.7
v -0.1 0 0.7
v -0.1 0.3 0.7
v -0.1 0.5 0.7
v -0.1 0.8 0.7
v 1 1.1 0.7
v 1 1.2 0.7
v 1.1 1.1 0.7
v 1.1 1.2 0.7
v -0.3 1.2 0.6
v -0.3 1.3 0.6
v -0.2 1.2 0.6
v -0.2 1.3 0.6
v 0.6 1.4 0.6
v 0.6 1.9 0.6
v 0.7 1.4 0.6
v 0.7 1.9 0.6
v 0.8 0.1 0.6
v 0.8 0.3 0.6
v 0.9 0.1 0.6
v 0.9 0.3 0.6
v 1 1.2 0.6
v 1 1.3 0.6
v 1.1 1.2 0.6
v 1.1 1.3 0.6
v -0.3 0.3 0.5
v -0.3 0.4 0.5
v -0.3 1.3 0.5
v -0.3 1.4 0.5
v -0.2 0.4 0.5
v -0.2 1.3 0.5
v -0.2 1.4 0.5
v -0.1 0.3 0.5
v -0.1 0.4 0.5
v 1 1.3 0.5
v 1 1.4 0.5
v 1.1 1.3 0.5
v 1.1 1.4 0.5
v -0.3 0 0.4
v -0.3 0.3 0.4
v -0.3 1.4 0.4
v -0.3 1.5 0.4
v -0.2 1.1 0.4
v -0.2 1.3 0.4
v -0.2 1.4 0.4
v -0.2 1.5 0.4
v -0.1 0 0.4
v -0.1 0.3 0.4
v -0.1 1.1 0.4
v -0.1 1.3 0.4
v 1 1.4 0.4
v 1 1.5 0.4
v 1.1 1.4 0.4
v 1.1 1.5 0.4
v -0.3 1.5 0.2
v -0.3 1.6 0.2
v -0.1 0.1 0.2
v -0.1 0.3 0.2
v 2.98023e-008 0.1 0.2
v 2.98023e-008 0.3 0.2
v 0.8 0.1 0.2
v 0.8 0.3 0.2
v 0.9 0.1 0.2
v 0.9 0.3 0.2
v 1.1 1.5 0.2
v 1.1 1.6 0.2
v -0.3 1.4 0.0999999
v -0.3 1.5 0.0999999
v -0.2 0.5 0.0999999
v -0.2 0.8 0.0999999
v -0.1 0.5 0.0999999
v -0.1 0.8 0.0999999
v 1.1 1.4 0.0999999
v 1.1 1.5 0.0999999
v -0.3 1.3 -1.19209e-007
v -0.3 1.4 -1.19209e-007
v 1.1 1.3 -1.19209e-007
v 1.1 1.4 -1.19209e-007
v -0.3 1.2 -0.1
v -0.3 1.3 -0.1
v 0.1 0.1 -0.1
v 0.1 0.3 -0.1
v 0.3 0.1 -0.1
v 0.3 0.3 -0.1
v 0.5 0.1 -0.1
v 0.5 0.3 -0.1
v 0.7 0.1 -0.1
v 0.7 0.3 -0.1
v 1.1 1.2 -0.1
v 1.1 1.3 -0.1
v -0.3 1.1 -0.2
v -0.3 1.2 -0.2
v -0.1 0 -0.2
v -0.1 0.4 -0.2
v 2.98023e-008 0 -0.2
v 2.98023e-008 0.4 -0.2
v 2.98023e-008 0.5 -0.2
v 2.98023e-008 0.8 -0.2
v 0.1 0.1 -0.2
v 0.1 0.3 -0.2
v 0.2 0.5 -0.2
v 0.2 0.8 -0.2
v 0.3 0.1 -0.2
v 0.3 0.3 -0.2
v 0.5 0.1 -0.2
v 0.5 0.3 -0.2
v 0.6 0.5 -0.2
v 0.6 0.8 -0.2
v 0.7 0.1 -0.2
v 0.7 0.3 -0.2
v 0.8 0 -0.2
v 0.8 0.4 -0.2
v 0.8 0.5 -0.2
v 0.8 0.8 -0.2
v 0.9 0 -0.2
v 0.9 0.4 -0.2
v 1.1 1.1 -0.2
v 1.1 1.2 -0.2
v -0.3 1 -0.3
v -0.3 1.1 -0.3
v -0.2 0.4 -0.3
v -0.2 0.9 -0.3
v -0.1 0.5 -0.3
v -0.1 0.9 -0.3
v 2.98023e-008 0.5 -0.3
v 2.98023e-008 0.8 -0.3
v 0.2 0.5 -0.3
v 0.2 0.8 -0.3
v 0.6 0.5 -0.3
v 0.6 0.8 -0.3
v 0.8 0.5 -0.3
v 0.8 0.8 -0.3
v 0.9 0.5 -0.3
v 0.9 0.9 -0.3
v 1 0.4 -0.3
v 1 0.9 -0.3
v 1.1 1 -0.3
v 1.1 1.1 -0.3
v -0.3 0.9 -0.4
v -0.3 1 -0.4
v 1.1 0.9 -0.4
v 1.1 1 -0.4
v -0.3 0 0.8
v -0.1 0 0.8
v 2.98023e-008 0 0.8
v 0.8 0 0.8
v 0.9 0 0.8
v -0.3 0 0.7
v -0.1 0 0.7
v 2.98023e-008 0 0.7
v 0.8 0 0.7
v 0.9 0 0.7
v -0.3 0 0.5
v -0.1 0 0.5
v -0.3 0 0.4
v -0.1 0 0.4
v 2.98023e-008 0 0.4
v -0.1 0 -0.1
v 2.98023e-008 0 -0.1
v 0.8 0 -0.1
v 0.9 0 -0.1
v -0.1 0 -0.2
v 2.98023e-008 0 -0.2
v 0.8 0 -0.2
v 0.9 0 -0.2
v 0.1 0.3 0.8
v 0.3 0.3 0.8
v 0.5 0.3 0.8
v 0.7 0.3 0.8
v -0.3 0.3 0.7
v -0.1 0.3 0.7
v 0.1 0.3 0.7
v 0.3 0.3 0.7
v 0.5 0.3 0.7
v 0.7 0.3 0.7
v 0.8 0.3 0.6
v 0.9 0.3 0.6
v -0.3 0.3 0.5
v -0.1 0.3 0.5
v 0.8 0.3 0.4
v 0.9 0.3 0.4
v -0.1 0.3 0.2
v 2.98023e-008 0.3 0.2
v 0.8 0.3 0.2
v 0.9 0.3 0.2
v -0.1 0.3 -1.19209e-007
v 2.98023e-008 0.3 -1.19209e-007
v 0.8 0.3 -1.19209e-007
v 0.9 0.3 -1.19209e-007
v 0.1 0.3 -0.1
v 0.3 0.3 -0.1
v 0.5 0.3 -0.1
v 0.7 0.3 -0.1
v 0.1 0.3 -0.2
v 0.3 0.3 -0.2
v 0.5 0.3 -0.2
v 0.7 0.3 -0.2
v -0.2 0.4 0.9
v 1 0.4 0.9
v -0.1 0.4 0.8
v 2.98023e-008 0.4 0.8
v 0.8 0.4 0.8
v 0.9 0.4 0.8
v -0.2 0.4 0.7
v -0.1 0.4 0.7
v 0.9 0.4 0.7
v -0.2 0.4 0.5
v -0.1 0.4 0.5
v -0.1 0.4 -0.1
v 0.9 0.4 -0.1
v -0.1 0.4 -0.2
v 2.98023e-008 0.4 -0.2
v 0.8 0.4 -0.2
v 0.9 0.4 -0.2
v -0.2 0.4 -0.3
v 1 0.4 -0.3
v 2.98023e-008 0.8 0.9
v 0.2 0.8 0.9
v 0.6 0.8 0.9
v 0.8 0.8 0.9
v 2.98023e-008 0.8 0.8
v 0.2 0.8 0.8
v 0.6 0.8 0.8
v 0.8 0.8 0.8
v -0.2 0.8 0.7
v -0.1 0.8 0.7
v -0.2 0.8 0.5
v -0.1 0.8 0.5
v -0.2 0.8 0.0999999
v -0.1 0.8 0.0999999
v -0.2 0.8 -0.1
v -0.1 0.8 -0.1
v 2.98023e-008 0.8 -0.2
v 0.2 0.8 -0.2
v 0.6 0.8 -0.2
v 0.8 0.8 -0.2
v 2.98023e-008 0.8 -0.3
v 0.2 0.8 -0.3
v 0.6 0.8 -0.3
v 0.8 0.8 -0.3
v -0.3 0.9 1
v 1.1 0.9 1
v -0.3 0.9 0.9
v -0.2 0.9 0.9
v -0.1 0.9 0.9
v 0.9 0.9 0.9
v 1 0.9 0.9
v 1.1 0.9 0.9
v -0.3 0.9 -0.3
v -0.2 0.9 -0.3
v -0.1 0.9 -0.3
v 0.9 0.9 -0.3
v 1 0.9 -0.3
v 1.1 0.9 -0.3
v -0.3 0.9 -0.4
v 1.1 0.9 -0.4
v -0.3 1 0.9
v -0.2 1 0.9
v 1 1 0.9
v 1.1 1 0.9
v -0.3 1 0.8
v -0.2 1 0.8
v 1 1 0.8
v 1.1 1 0.8
v -0.3 1 -0.2
v -0.2 1 -0.2
v 1 1 -0.2
v 1.1 1 -0.2
v -0.3 1 -0.3
v -0.2 1 -0.3
v 1 1 -0.3
v 1.1 1 -0.3
v -0.3 1.1 0.8
v -0.2 1.1 0.8
v 1 1.1 0.8
v 1.1 1.1 0.8
v -0.3 1.1 0.7
v -0.2 1.1 0.7
v 1 1.1 0.7
v 1.1 1.1 0.7
v -0.3 1.1 -0.1
v -0.2 1.1 -0.1
v 1 1.1 -0.1
v 1.1 1.1 -0.1
v -0.3 1.1 -0.2
v -0.2 1.1 -0.2
v 1 1.1 -0.2
v 1.1 1.1 -0.2
v -0.3 1.2 0.7
v -0.2 1.2 0.7
v 1 1.2 0.7
v 1.1 1.2 0.7
v -0.3 1.2 0.6
v -0.2 1.2 0.6
v 1 1.2 0.6
v 1.1 1.2 0.6
v -0.3 1.2 -1.19209e-007
v -0.2 1.2 -1.19209e-007
v 1 1.2 -1.19209e-007
v 1.1 1.2 -1.19209e-007
v -0.3 1.2 -0.1
v -0.2 1.2 -0.1
v 1 1.2 -0.1
v 1.1 1.2 -0.1
v -0.3 1.3 0.6
v -0.2 1.3 0.6
v 1 1.3 0.6
v 1.1 1.3 0.6
v -0.3 1.3 0.5
v -0.2 1.3 0.5
v 1 1.3 0.5
v 1.1 1.3 0.5
v -0.2 1.3 0.4
v -0.1 1.3 0.4
v -0.2 1.3 0.2
v -0.1 1.3 0.2
v -0.3 1.3 0.0999999
v -0.2 1.3 0.0999999
v 1 1.3 0.0999999
v 1.1 1.3 0.0999999
v -0.3 1.3 -1.19209e-007
v -0.2 1.3 -1.19209e-007
v 1 1.3 -1.19209e-007
v 1.1 1.3 -1.19209e-007
v -0.3 1.4 0.5
v -0.2 1.4 0.5
v 1 1.4 0.5
v 1.1 1.4 0.5
v -0.3 1.4 0.4
v -0.2 1.4 0.4
v 1 1.4 0.4
v 1.1 1.4 0.4
v -0.3 1.4 0.2
v -0.2 1.4 0.2
v 1 1.4 0.2
v 1.1 1.4 0.2
v -0.3 1.4 0.0999999
v -0.2 1.4 0.0999999
v 1 1.4 0.0999999
v 1.1 1.4 0.0999999
v -0.3 1.5 0.4
v -0.2 1.5 0.4
v 1 1.5 0.4
v 1.1 1.5 0.4
v -0.3 1.5 0.2
v -0.2 1.5 0.2
v 1 1.5 0.2
v 1.1 1.5 0.2
v 0.1 0.1 0.8
v 0.3 0.1 0.8
v 0.5 0.1 0.8
v 0.7 0.1 0.8
v 0.1 0.1 0.7
v 0.3 0.1 0.7
v 0.5 0.1 0.7
v 0.7 0.1 0.7
v 0.8 0.1 0.6
v 0.9 0.1 0.6
v 0.8 0.1 0.4
v 0.9 0.1 0.4
v -0.1 0.1 0.2
v 2.98023e-008 0.1 0.2
v 0.8 0.1 0.2
v 0.9 0.1 0.2
v -0.1 0.1 -1.19209e-007
v 2.98023e-008 0.1 -1.19209e-007
v 0.8 0.1 -1.19209e-007
v 0.9 0.1 -1.19209e-007
v 0.1 0.1 -0.1
v 0.3 0.1 -0.1
v 0.5 0.1 -0.1
v 0.7 0.1 -0.1
v 0.1 0.1 -0.2
v 0.3 0.1 -0.2
v 0.5 0.1 -0.2
v 0.7 0.1 -0.2
v -0.3 0.3 0.8
v -0.1 0.3 0.8
v -0.3 0.3 0.7
v -0.1 0.3 0.7
v -0.3 0.3 0.5
v -0.1 0.3 0.5
v -0.3 0.3 0.4
v -0.1 0.3 0.4
v -0.3 0.4 0.7
v -0.2 0.4 0.7
v -0.3 0.4 0.5
v -0.2 0.4 0.5
v 2.98023e-008 0.5 0.9
v 0.2 0.5 0.9
v 0.6 0.5 0.9
v 0.8 0.5 0.9
v 2.98023e-008 0.5 0.8
v 0.2 0.5 0.8
v 0.6 0.5 0.8
v 0.8 0.5 0.8
v -0.2 0.5 0.7
v -0.1 0.5 0.7
v -0.2 0.5 0.5
v -0.1 0.5 0.5
v -0.2 0.5 0.0999999
v -0.1 0.5 0.0999999
v -0.2 0.5 -0.1
v -0.1 0.5 -0.1
v 2.98023e-008 0.5 -0.2
v 0.2 0.5 -0.2
v 0.6 0.5 -0.2
v 0.8 0.5 -0.2
v 2.98023e-008 0.5 -0.3
v 0.2 0.5 -0.3
v 0.6 0.5 -0.3
v 0.8 0.5 -0.3
v -0.3 1 1
v 1.1 1 1
v -0.3 1 0.9
v 1.1 1 0.9
v -0.3 1 -0.3
v 1.1 1 -0.3
v -0.3 1 -0.4
v 1.1 1 -0.4
v -0.3 1.1 0.9
v 1.1 1.1 0.9
v -0.3 1.1 0.8
v 1.1 1.1 0.8
v -0.2 1.1 0.4
v -0.1 1.1 0.4
v -0.2 1.1 0.2
v -0.1 1.1 0.2
v -0.3 1.1 -0.2
v 1.1 1.1 -0.2
v -0.3 1.1 -0.3
v 1.1 1.1 -0.3
v -0.3 1.2 0.8
v 1.1 1.2 0.8
v -0.3 1.2 0.7
v 1.1 1.2 0.7
v -0.3 1.2 -0.1
v 1.1 1.2 -0.1
v -0.3 1.2 -0.2
v 1.1 1.2 -0.2
v -0.3 1.3 0.7
v 0.6 1.3 0.7
v 0.7 1.3 0.7
v 1.1 1.3 0.7
v -0.3 1.3 0.6
v 0.6 1.3 0.6
v 0.7 1.3 0.6
v 1.1 1.3 0.6
v -0.3 1.3 -1.19209e-007
v 1.1 1.3 -1.19209e-007
v -0.3 1.3 -0.1
v 1.1 1.3 -0.1
v -0.3 1.4 0.6
v 0.6 1.4 0.6
v 0.7 1.4 0.6
v 1.1 1.4 0.6
v -0.3 1.4 0.5
v 1.1 1.4 0.5
v -0.3 1.4 0.0999999
v 1.1 1.4 0.0999999
v -0.3 1.4 -1.19209e-007
v 1.1 1.4 -1.19209e-007
v -0.3 1.5 0.5
v 1.1 1.5 0.5
v -0.3 1.5 0.4
v 1.1 1.5 0.4
v -0.3 1.5 0.2
v 1.1 1.5 0.2
v -0.3 1.5 0.0999999
v 1.1 1.5 0.0999999
v -0.3 1.6 0.4
v 1.1 1.6 0.4
v -0.3 1.6 0.2
v 1.1 1.6 0.2
v 0.6 1.9 0.7
v 0.7 1.9 0.7
v 0.6 1.9 0.6
v 0.7 1.9 0.6

# faces
f 5/1/1 2/1/1 1/1/1
f 6/1/1 2/1/1 5/1/1
f 7/1/1 4/1/1 3/1/1
f 8/1/1 4/1/1 7/1/1
f 9/1/1 7/1/1 6/1/1
f 10/1/1 7/1/1 9/1/1
f 15/2/1 12/2/1 11/2/1
f 16/2/1 12/2/1 15/2/1
f 19/2/1 14/2/1 13/2/1
f 20/2/1 14/2/1 19/2/1
f 21/2/1 17/2/1 16/2/1
f 22/2/1 17/2/1 21/2/1
f 25/2/1 19/2/1 18/2/1
f 26/2/1 19/2/1 25/2/1
f 27/2/1 23/2/1 22/2/1
f 28/2/1 23/2/1 27/2/1
f 31/2/1 25/2/1 24/2/1
f 32/2/1 25/2/1 31/2/1
f 33/2/1 29/2/1 28/2/1
f 34/2/1 29/2/1 33/2/1
f 37/2/1 31/2/1 30/2/1
f 38/2/1 31/2/1 37/2/1
f 39/2/1 35/2/1 34/2/1
f 40/2/1 35/2/1 39/2/1
f 43/2/1 37/2/1 36/2/1
f 44/2/1 37/2/1 43/2/1
f 45/2/1 41/2/1 40/2/1
f 46/2/1 41/2/1 45/2/1
f 47/2/1 43/2/1 42/2/1
f 48/2/1 43/2/1 47/2/1
f 49/2/1 47/2/1 46/2/1
f 50/2/1 47/2/1 49/2/1
f 55/4/1 52/4/1 51/4/1
f 55/4/1 54/4/1 53/4/1
f 55/4/1 53/4/1 52/4/1
f 56/4/1 54/4/1 55/4/1
f 57/4/1 54/4/1 56/4/1
f 58/4/1 54/4/1 57/4/1
f 59/4/1 54/4/1 58/4/1
f 60/4/1 54/4/1 59/4/1
f 61/1/1 56/1/1 55/1/1
f 62/1/1 58/1/1 57/1/1
f 63/1/1 58/1/1 62/1/1
f 64/1/1 60/1/1 59/1/1
f 65/4/1 55/4/1 51/4/1
f 66/4/1 54/4/1 60/4/1
f 67/4/1 55/4/1 65/4/1
f 68/1/1 64/1/1 63/1/1
f 68/4/1 55/4/1 67/4/1
f 68/1/1 63/1/1 62/1/1
f 68/1/1 61/1/1 55/1/1
f 68/1/1 62/1/1 61/1/1
f 69/4/1 66/4/1 60/4/1
f 69/1/1 64/1/1 68/1/1
f 69/1/1 60/1/1 64/1/1
f 70/4/1 66/4/1 69/4/1
f 71/1/1 69/1/1 68/1/1
f 72/1/1 69/1/1 71/1/1
f 73/1/1 69/1/1 72/1/1
f 74/1/1 69/1/1 73/1/1
f 75/1/1 69/1/1 74/1/1
f 76/1/1 69/1/1 75/1/1
f 77/1/1 73/1/1 72/1/1
f 78/1/1 73/1/1 77/1/1
f 79/1/1 75/1/1 74/1/1
f 80/1/1 75/1/1 79/1/1
f 81/1/1 73/1/1 78/1/1
f 82/1/1 73/1/1 81/1/1
f 83/1/1 73/1/1 82/1/1
f 84/1/1 79/1/1 74/1/1
f 85/1/1 79/1/1 84/1/1
f 86/1/1 79/1/1 85/1/1
f 87/1/1 83/1/1 82/1/1
f 87/1/1 85/1/1 84/1/1
f 87/1/1 84/1/1 83/1/1
f 88/1/1 85/1/1 87/1/1
f 89/1/1 85/1/1 88/1/1
f 90/1/1 85/1/1 89/1/1
f 91/1/1 89/1/1 88/1/1
f 92/1/1 89/1/1 91/1/1
f 98/1/1 96/1/1 95/1/1
f 99/1/1 96/1/1 98/1/1
f 101/4/1 94/4/1 93/4/1
f 102/4/1 94/4/1 101/4/1
f 103/1/1 98/1/1 95/1/1
f 104/1/1 98/1/1 103/1/1
f 105/1/1 96/1/1 99/1/1
f 106/4/1 101/4/1 100/4/1
f 107/4/1 101/4/1 106/4/1
f 108/1/1 104/1/1 103/1/1
f 108/1/1 105/1/1 104/1/1
f 108/1/1 103/1/1 102/1/1
f 109/4/1 97/4/1 96/4/1
f 109/1/1 105/1/1 108/1/1
f 109/1/1 96/1/1 105/1/1
f 110/4/1 97/4/1 109/4/1
f 115/3/1 112/3/1 111/3/1
f 116/3/1 112/3/1 115/3/1
f 117/3/1 114/3/1 113/3/1
f 118/3/1 114/3/1 117/3/1
f 121/3/1 120/3/1 119/3/1
f 122/3/1 120/3/1 121/3/1
f 125/3/1 124/3/1 123/3/1
f 126/3/1 124/3/1 125/3/1
f 131/1/1 128/1/1 127/1/1
f 132/1/1 128/1/1 131/1/1
f 133/1/1 130/1/1 129/1/1
f 134/1/1 130/1/1 133/1/1
f 139/1/1 136/1/1 135/1/1
f 140/1/1 136/1/1 139/1/1
f 141/1/1 138/1/1 137/1/1
f 142/1/1 138/1/1 141/1/1
f 145/5/1 144/5/1 143/5/1
f 146/5/1 145/5/1 143/5/1
f 147/5/1 145/5/1 146/5/1
f 152/1/1 149/1/1 148/1/1
f 153/1/1 149/1/1 152/1/1
f 154/1/1 151/1/1 150/1/1
f 155/1/1 151/1/1 154/1/1
f 160/1/1 157/1/1 156/1/1
f 161/1/1 157/1/1 160/1/1
f 162/1/1 159/1/1 158/1/1
f 163/1/1 159/1/1 162/1/1
f 164/1/2 165/1/2 168/1/2
f 168/1/2 165/1/2 169/1/2
f 166/1/2 167/1/2 170/1/2
f 170/1/2 167/1/2 171/1/2
f 172/1/2 173/1/2 176/1/2
f 176/1/2 173/1/2 177/1/2
f 174/1/2 175/1/2 178/1/2
f 178/1/2 175/1/2 179/1/2
f 180/1/2 181/1/2 184/1/2
f 184/1/2 181/1/2 185/1/2
f 182/1/2 183/1/2 186/1/2
f 186/1/2 183/1/2 187/1/2
f 188/1/2 189/1/2 192/1/2
f 192/1/2 189/1/2 193/1/2
f 190/1/2 191/1/2 194/1/2
f 194/1/2 191/1/2 195/1/2
f 196/5/2 197/5/2 198/5/2
f 196/5/2 198/5/2 199/5/2
f 199/5/2 198/5/2 200/5/2
f 201/3/2 202/3/2 205/3/2
f 205/3/2 202/3/2 206/3/2
f 203/3/2 204/3/2 207/3/2
f 207/3/2 204/3/2 208/3/2
f 210/1/2 211/1/2 213/1/2
f 213/1/2 211/1/2 214/1/2
f 214/1/2 211/1/2 215/1/2
f 215/1/2 211/1/2 216/1/2
f 210/1/2 213/1/2 217/1/2
f 214/1/2 215/1/2 218/1/2
f 218/1/2 215/1/2 219/1/2
f 216/1/2 211/1/2 220/1/2
f 209/4/2 210/4/2 221/4/2
f 219/1/2 220/1/2 222/1/2
f 221/4/2 210/4/2 222/4/2
f 218/1/2 219/1/2 222/1/2
f 210/1/2 217/1/2 222/1/2
f 217/1/2 218/1/2 222/1/2
f 211/4/2 212/4/2 223/4/2
f 222/1/2 220/1/2 223/1/2
f 220/1/2 211/1/2 223/1/2
f 223/4/2 212/4/2 224/4/2
f 225/4/2 226/4/2 227/4/2
f 227/4/2 226/4/2 228/4/2
f 225/4/2 227/4/2 229/4/2
f 228/4/2 226/4/2 230/4/2
f 229/4/2 227/4/2 231/4/2
f 227/1/2 228/1/2 232/1/2
f 231/4/2 227/4/2 232/4/2
f 228/4/2 230/4/2 233/4/2
f 232/1/2 228/1/2 233/1/2
f 233/4/2 230/4/2 234/4/2
f 232/1/2 233/1/2 235/1/2
f 235/1/2 233/1/2 236/1/2
f 236/1/2 233/1/2 237/1/2
f 237/1/2 233/1/2 238/1/2
f 236/1/2 237/1/2 239/1/2
f 239/1/2 237/1/2 240/1/2
f 240/1/2 237/1/2 241/1/2
f 241/1/2 237/1/2 242/1/2
f 240/1/2 241/1/2 243/1/2
f 243/1/2 241/1/2 244/1/2
f 244/1/2 241/1/2 245/1/2
f 245/1/2 241/1/2 246/1/2
f 244/1/2 245/1/2 247/1/2
f 247/1/2 245/1/2 248/1/2
f 248/1/2 245/1/2 249/1/2
f 249/1/2 245/1/2 250/1/2
f 248/1/2 249/1/2 251/1/2
f 251/1/2 249/1/2 252/1/2
f 253/2/2 254/2/2 257/2/2
f 257/2/2 254/2/2 258/2/2
f 255/2/2 256/2/2 261/2/2
f 261/2/2 256/2/2 262/2/2
f 258/2/2 259/2/2 263/2/2
f 263/2/2 259/2/2 264/2/2
f 260/2/2 261/2/2 267/2/2
f 267/2/2 261/2/2 268/2/2
f 264/2/2 265/2/2 269/2/2
f 269/2/2 265/2/2 270/2/2
f 266/2/2 267/2/2 273/2/2
f 273/2/2 267/2/2 274/2/2
f 270/2/2 271/2/2 275/2/2
f 275/2/2 271/2/2 276/2/2
f 272/2/2 273/2/2 279/2/2
f 279/2/2 273/2/2 280/2/2
f 276/2/2 277/2/2 281/2/2
f 281/2/2 277/2/2 282/2/2
f 278/2/2 279/2/2 285/2/2
f 285/2/2 279/2/2 286/2/2
f 282/2/2 283/2/2 287/2/2
f 287/2/2 283/2/2 288/2/2
f 284/2/2 285/2/2 289/2/2
f 289/2/2 285/2/2 290/2/2
f 288/2/2 289/2/2 291/2/2
f 291/2/2 289/2/2 292/2/2
f 295/2/3 294/2/3 293/2/3
f 296/2/3 294/2/3 295/2/3
f 301/4/3 300/4/3 299/4/3
f 302/4/3 300/4/3 301/4/3
f 303/4/3 301/4/3 299/4/3
f 303/1/3 302/1/3 301/1/3
f 304/1/3 302/1/3 303/1/3
f 305/4/3 303/4/3 299/4/3
f 306/1/3 302/1/3 304/1/3
f 307/4/3 305/4/3 299/4/3
f 307/1/3 306/1/3 305/1/3
f 308/1/3 302/1/3 306/1/3
f 308/1/3 306/1/3 307/1/3
f 309/4/3 307/4/3 299/4/3
f 310/1/3 302/1/3 308/1/3
f 311/4/3 309/4/3 299/4/3
f 311/1/3 310/1/3 309/1/3
f 312/1/3 302/1/3 310/1/3
f 312/1/3 310/1/3 311/1/3
f 313/4/3 311/4/3 299/4/3
f 313/4/3 312/4/3 311/4/3
f 314/4/3 312/4/3 313/4/3
f 315/2/3 298/2/3 297/2/3
f 316/2/3 298/2/3 315/2/3
f 321/1/3 318/1/3 317/1/3
f 322/1/3 318/1/3 321/1/3
f 324/4/3 322/4/3 321/4/3
f 324/4/3 323/4/3 322/4/3
f 325/4/3 323/4/3 324/4/3
f 328/1/3 325/1/3 324/1/3
f 329/1/3 325/1/3 328/1/3
f 330/3/3 327/3/3 326/3/3
f 331/3/3 327/3/3 330/3/3
f 332/1/3 328/1/3 324/1/3
f 333/1/3 325/1/3 329/1/3
f 334/1/3 332/1/3 324/1/3
f 334/1/3 333/1/3 332/1/3
f 335/1/3 325/1/3 333/1/3
f 335/1/3 333/1/3 334/1/3
f 338/1/3 334/1/3 324/1/3
f 339/1/3 325/1/3 335/1/3
f 340/1/3 338/1/3 324/1/3
f 340/1/3 339/1/3 338/1/3
f 341/1/3 325/1/3 339/1/3
f 341/1/3 339/1/3 340/1/3
f 342/3/3 337/3/3 336/3/3
f 343/3/3 337/3/3 342/3/3
f 344/4/3 341/4/3 340/4/3
f 345/4/3 341/4/3 344/4/3
f 346/2/3 320/2/3 319/2/3
f 347/2/3 320/2/3 346/2/3
f 352/1/3 349/1/3 348/1/3
f 353/1/3 352/1/3 348/1/3
f 354/1/3 352/1/3 353/1/3
f 357/3/3 356/3/3 355/3/3
f 358/3/3 356/3/3 357/3/3
f 361/2/3 351/2/3 350/2/3
f 363/3/3 360/3/3 359/3/3
f 364/3/3 360/3/3 363/3/3
f 365/5/3 362/5/3 361/5/3
f 365/2/3 361/2/3 350/2/3
f 366/5/3 362/5/3 365/5/3
f 367/2/3 365/2/3 350/2/3
f 368/2/3 365/2/3 367/2/3
f 371/2/3 370/2/3 369/2/3
f 372/2/3 370/2/3 371/2/3
f 375/2/3 374/2/3 373/2/3
f 376/2/3 374/2/3 375/2/3
f 383/1/3 378/1/3 377/1/3
f 384/1/3 378/1/3 383/1/3
f 385/1/3 382/1/3 381/1/3
f 386/1/3 382/1/3 385/1/3
f 387/2/3 380/2/3 379/2/3
f 388/2/3 380/2/3 387/2/3
f 393/1/3 392/1/3 391/1/3
f 394/1/3 392/1/3 393/1/3
f 395/2/3 390/2/3 389/2/3
f 396/2/3 390/2/3 395/2/3
f 401/2/3 398/2/3 397/2/3
f 402/2/3 398/2/3 401/2/3
f 403/1/3 400/1/3 399/1/3
f 404/1/3 400/1/3 403/1/3
f 407/2/3 406/2/3 405/2/3
f 408/2/3 406/2/3 407/2/3
f 411/2/3 410/2/3 409/2/3
f 412/2/3 410/2/3 411/2/3
f 415/2/3 414/2/3 413/2/3
f 416/2/3 414/2/3 415/2/3
f 419/2/3 418/2/3 417/2/3
f 420/2/3 418/2/3 419/2/3
f 423/1/3 422/1/3 421/1/3
f 424/1/3 422/1/3 423/1/3
f 427/1/3 426/1/3 425/1/3
f 428/1/3 426/1/3 427/1/3
f 431/2/3 430/2/3 429/2/3
f 432/2/3 430/2/3 431/2/3
f 437/2/3 434/2/3 433/2/3
f 438/2/3 434/2/3 437/2/3
f 439/1/3 436/1/3 435/1/3
f 440/1/3 436/1/3 439/1/3
f 443/2/3 442/2/3 441/2/3
f 444/2/3 442/2/3 443/2/3
f 447/2/3 446/2/3 445/2/3
f 448/2/3 446/2/3 447/2/3
f 451/2/3 450/2/3 449/2/3
f 452/2/3 450/2/3 451/2/3
f 455/2/3 454/2/3 453/2/3
f 456/2/3 454/2/3 455/2/3
f 459/2/3 458/2/3 457/2/3
f 460/2/3 458/2/3 459/2/3
f 461/2/4 462/2/4 463/2/4
f 463/2/4 462/2/4 464/2/4
f 465/2/4 466/2/4 467/2/4
f 467/2/4 466/2/4 468/2/4
f 469/2/4 470/2/4 471/2/4
f 471/2/4 470/2/4 472/2/4
f 473/2/4 474/2/4 475/2/4
f 475/2/4 474/2/4 476/2/4
f 479/2/4 480/2/4 483/2/4
f 483/2/4 480/2/4 484/2/4
f 477/1/4 478/1/4 485/1/4
f 485/1/4 478/1/4 486/1/4
f 481/1/4 482/1/4 487/1/4
f 487/1/4 482/1/4 488/1/4
f 489/2/4 490/2/4 491/2/4
f 491/2/4 490/2/4 492/2/4
f 493/2/4 494/2/4 495/2/4
f 495/2/4 494/2/4 496/2/4
f 497/5/4 498/5/4 499/5/4
f 499/5/4 498/5/4 500/5/4
f 501/1/4 502/1/4 503/1/4
f 503/1/4 502/1/4 504/1/4
f 505/2/4 506/2/4 507/2/4
f 507/2/4 506/2/4 508/2/4
f 509/1/4 510/1/4 513/1/4
f 511/2/4 512/2/4 514/2/4
f 514/2/4 512/2/4 515/2/4
f 509/1/4 513/1/4 516/1/4
f 516/1/4 513/1/4 517/1/4
f 518/2/4 519/2/4 520/2/4
f 520/2/4 519/2/4 521/2/4
f 524/2/4 525/2/4 528/2/4
f 528/2/4 525/2/4 529/2/4
f 522/1/4 523/1/4 530/1/4
f 530/1/4 523/1/4 531/1/4
f 526/1/4 527/1/4 532/1/4
f 532/1/4 527/1/4 533/1/4
f 534/2/4 535/2/4 536/2/4
f 536/2/4 535/2/4 537/2/4
f 540/1/4 541/1/4 542/1/4
f 542/1/4 541/1/4 543/1/4
f 544/1/4 545/1/4 546/1/4
f 546/1/4 545/1/4 547/1/4
f 538/2/4 539/2/4 548/2/4
f 548/2/4 539/2/4 549/2/4
f 552/1/4 553/1/4 554/1/4
f 554/1/4 553/1/4 555/1/4
f 550/2/4 551/2/4 556/2/4
f 556/2/4 551/2/4 557/2/4
f 558/2/4 559/2/4 560/2/4
f 560/2/4 559/2/4 561/2/4
f 564/3/4 565/3/4 566/3/4
f 566/3/4 565/3/4 567/3/4
f 568/3/4 569/3/4 570/3/4
f 570/3/4 569/3/4 571/3/4
f 562/2/4 563/2/4 572/2/4
f 572/2/4 563/2/4 573/2/4
f 576/4/4 577/4/4 578/4/4
f 578/4/4 577/4/4 579/4/4
f 578/1/4 579/1/4 582/1/4
f 582/1/4 579/1/4 583/1/4
f 580/3/4 581/3/4 584/3/4
f 584/3/4 581/3/4 585/3/4
f 578/1/4 582/1/4 586/1/4
f 583/1/4 579/1/4 587/1/4
f 578/1/4 586/1/4 588/1/4
f 586/1/4 587/1/4 588/1/4
f 587/1/4 579/1/4 589/1/4
f 588/1/4 587/1/4 589/1/4
f 578/1/4 588/1/4 592/1/4
f 589/1/4 579/1/4 593/1/4
f 578/1/4 592/1/4 594/1/4
f 592/1/4 593/1/4 594/1/4
f 593/1/4 579/1/4 595/1/4
f 594/1/4 593/1/4 595/1/4
f 590/3/4 591/3/4 596/3/4
f 596/3/4 591/3/4 597/3/4
f 594/4/4 595/4/4 598/4/4
f 598/4/4 595/4/4 599/4/4
f 574/2/4 575/2/4 600/2/4
f 600/2/4 575/2/4 601/2/4
f 604/4/4 605/4/4 606/4/4
f 606/4/4 605/4/4 607/4/4
f 604/4/4 606/4/4 608/4/4
f 606/1/4 607/1/4 608/1/4
f 608/1/4 607/1/4 609/1/4
f 604/4/4 608/4/4 610/4/4
f 609/1/4 607/1/4 611/1/4
f 604/4/4 610/4/4 612/4/4
f 610/1/4 611/1/4 612/1/4
f 611/1/4 607/1/4 613/1/4
f 612/1/4 611/1/4 613/1/4
f 604/4/4 612/4/4 614/4/4
f 613/1/4 607/1/4 615/1/4
f 604/4/4 614/4/4 616/4/4
f 614/1/4 615/1/4 616/1/4
f 615/1/4 607/1/4 617/1/4
f 616/1/4 615/1/4 617/1/4
f 604/4/4 616/4/4 618/4/4
f 616/4/4 617/4/4 618/4/4
f 618/4/4 617/4/4 619/4/4
f 602/2/4 603/2/4 620/2/4
f 620/2/4 603/2/4 621/2/4
f 622/2/4 623/2/4 624/2/4
f 624/2/4 623/2/4 625/2/4
f 631/1/5 627/1/5 626/1/5
f 632/4/5 628/4/5 627/4/5
f 632/1/5 627/1/5 631/1/5
f 633/1/5 629/1/5 628/1/5
f 633/4/5 628/4/5 632/4/5
f 634/4/5 630/4/5 629/4/5
f 634/1/5 629/1/5 633/1/5
f 635/4/5 630/4/5 634/4/5
f 637/4/5 633/4/5 632/4/5
f 637/4/5 634/4/5 633/4/5
f 638/1/5 637/1/5 636/1/5
f 639/4/5 634/4/5 637/4/5
f 639/1/5 637/1/5 638/1/5
f 640/4/5 634/4/5 639/4/5
f 641/1/5 640/1/5 639/1/5
f 642/4/5 634/4/5 640/4/5
f 642/1/5 640/1/5 641/1/5
f 643/1/5 635/1/5 634/1/5
f 643/4/5 634/4/5 642/4/5
f 644/1/5 635/1/5 643/1/5
f 645/4/5 642/4/5 641/4/5
f 646/1/5 643/1/5 642/1/5
f 646/4/5 642/4/5 645/4/5
f 647/4/5 644/4/5 643/4/5
f 647/1/5 643/1/5 646/1/5
f 648/4/5 644/4/5 647/4/5
f 655/1/5 650/1/5 649/1/5
f 656/1/5 650/1/5 655/1/5
f 657/1/5 652/1/5 651/1/5
f 658/1/5 652/1/5 657/1/5
f 661/1/5 654/1/5 653/1/5
f 662/1/5 654/1/5 661/1/5
f 663/1/5 660/1/5 659/1/5
f 664/1/5 660/1/5 663/1/5
f 669/1/5 666/1/5 665/1/5
f 670/1/5 666/1/5 669/1/5
f 671/1/5 668/1/5 667/1/5
f 672/1/5 668/1/5 671/1/5
f 677/1/5 674/1/5 673/1/5
f 678/1/5 674/1/5 677/1/5
f 679/1/5 676/1/5 675/1/5
f 680/1/5 676/1/5 679/1/5
f 683/4/5 682/4/5 681/4/5
f 684/4/5 682/4/5 683/4/5
f 685/4/5 682/4/5 684/4/5
f 686/4/5 682/4/5 685/4/5
f 687/4/5 683/4/5 681/4/5
f 688/4/5 683/4/5 687/4/5
f 689/4/5 682/4/5 686/4/5
f 692/4/5 691/4/5 690/4/5
f 693/4/5 682/4/5 689/4/5
f 694/4/5 692/4/5 690/4/5
f 697/4/5 682/4/5 693/4/5
f 698/4/5 696/4/5 695/4/5
f 698/4/5 697/4/5 696/4/5
f 698/4/5 694/4/5 690/4/5
f 698/4/5 695/4/5 694/4/5
f 699/4/5 682/4/5 697/4/5
f 699/4/5 697/4/5 698/4/5
f 704/1/5 701/1/5 700/1/5
f 705/1/5 701/1/5 704/1/5
f 706/1/5 703/1/5 702/1/5
f 707/1/5 703/1/5 706/1/5
f 710/1/5 709/1/5 708/1/5
f 711/1/5 709/1/5 710/1/5
f 714/1/5 713/1/5 712/1/5
f 715/1/5 713/1/5 714/1/5
f 720/1/5 717/1/5 716/1/5
f 721/1/5 717/1/5 720/1/5
f 722/1/5 719/1/5 718/1/5
f 723/1/5 719/1/5 722/1/5
f 726/2/5 725/2/5 724/2/5
f 727/2/5 725/2/5 726/2/5
f 728/2/5 725/2/5 727/2/5
f 729/2/5 725/2/5 728/2/5
f 730/2/5 725/2/5 729/2/5
f 731/2/5 725/2/5 730/2/5
f 738/2/5 733/2/5 732/2/5
f 738/2/5 737/2/5 736/2/5
f 738/2/5 736/2/5 735/2/5
f 738/2/5 735/2/5 734/2/5
f 738/2/5 734/2/5 733/2/5
f 739/2/5 737/2/5 738/2/5
f 744/2/5 741/2/5 740/2/5
f 745/2/5 741/2/5 744/2/5
f 746/2/5 743/2/5 742/2/5
f 747/2/5 743/2/5 746/2/5
f 752/2/5 749/2/5 748/2/5
f 753/2/5 749/2/5 752/2/5
f 754/2/5 751/2/5 750/2/5
f 755/2/5 751/2/5 754/2/5
f 760/2/5 757/2/5 756/2/5
f 761/2/5 757/2/5 760/2/5
f 762/2/5 759/2/5 758/2/5
f 763/2/5 759/2/5 762/2/5
f 768/2/5 765/2/5 764/2/5
f 769/2/5 765/2/5 768/2/5
f 770/2/5 767/2/5 766/2/5
f 771/2/5 767/2/5 770/2/5
f 776/2/5 773/2/5 772/2/5
f 777/2/5 773/2/5 776/2/5
f 778/2/5 775/2/5 774/2/5
f 779/2/5 775/2/5 778/2/5
f 784/2/5 781/2/5 780/2/5
f 785/2/5 781/2/5 784/2/5
f 786/2/5 783/2/5 782/2/5
f 787/2/5 783/2/5 786/2/5
f 792/2/5 789/2/5 788/2/5
f 793/2/5 789/2/5 792/2/5
f 794/2/5 791/2/5 790/2/5
f 795/2/5 791/2/5 794/2/5
f 798/1/5 797/1/5 796/1/5
f 799/1/5 797/1/5 798/1/5
f 804/2/5 801/2/5 800/2/5
f 805/2/5 801/2/5 804/2/5
f 806/2/5 803/2/5 802/2/5
f 807/2/5 803/2/5 806/2/5
f 812/2/5 809/2/5 808/2/5
f 813/2/5 809/2/5 812/2/5
f 814/2/5 811/2/5 810/2/5
f 815/2/5 811/2/5 814/2/5
f 820/2/5 817/2/5 816/2/5
f 821/2/5 817/2/5 820/2/5
f 822/2/5 819/2/5 818/2/5
f 823/2/5 819/2/5 822/2/5
f 828/2/5 825/2/5 824/2/5
f 829/2/5 825/2/5 828/2/5
f 830/2/5 827/2/5 826/2/5
f 831/2/5 827/2/5 830/2/5
f 832/1/6 833/1/6 836/1/6
f 836/1/6 833/1/6 837/1/6
f 834/1/6 835/1/6 838/1/6
f 838/1/6 835/1/6 839/1/6
f 840/1/6 841/1/6 842/1/6
f 842/1/6 841/1/6 843/1/6
f 844/1/6 845/1/6 848/1/6
f 848/1/6 845/1/6 849/1/6
f 846/1/6 847/1/6 850/1/6
f 850/1/6 847/1/6 851/1/6
f 852/1/6 853/1/6 856/1/6
f 856/1/6 853/1/6 857/1/6
f 854/1/6 855/1/6 858/1/6
f 858/1/6 855/1/6 859/1/6
f 860/1/6 861/1/6 862/1/6
f 862/1/6 861/1/6 863/1/6
f 864/1/6 865/1/6 866/1/6
f 866/1/6 865/1/6 867/1/6
f 868/1/6 869/1/6 870/1/6
f 870/1/6 869/1/6 871/1/6
f 872/4/6 873/4/6 876/4/6
f 876/4/6 873/4/6 877/4/6
f 874/4/6 875/4/6 878/4/6
f 878/4/6 875/4/6 879/4/6
f 880/4/6 881/4/6 882/4/6
f 882/4/6 881/4/6 883/4/6
f 884/4/6 885/4/6 886/4/6
f 886/4/6 885/4/6 887/4/6
f 888/4/6 889/4/6 892/4/6
f 892/4/6 889/4/6 893/4/6
f 890/4/6 891/4/6 894/4/6
f 894/4/6 891/4/6 895/4/6
f 896/2/6 897/2/6 898/2/6
f 898/2/6 897/2/6 899/2/6
f 900/2/6 901/2/6 902/2/6
f 902/2/6 901/2/6 903/2/6
f 904/2/6 905/2/6 906/2/6
f 906/2/6 905/2/6 907/2/6
f 908/1/6 909/1/6 910/1/6
f 910/1/6 909/1/6 911/1/6
f 912/2/6 913/2/6 914/2/6
f 914/2/6 913/2/6 915/2/6
f 916/2/6 917/2/6 918/2/6
f 918/2/6 917/2/6 919/2/6
f 920/2/6 921/2/6 922/2/6
f 922/2/6 921/2/6 923/2/6
f 924/2/6 925/2/6 928/2/6
f 928/2/6 925/2/6 929/2/6
f 926/2/6 927/2/6 930/2/6
f 930/2/6 927/2/6 931/2/6
f 932/2/6 933/2/6 934/2/6
f 934/2/6 933/2/6 935/2/6
f 936/2/6 937/2/6 940/2/6
f 938/2/6 939/2/6 940/2/6
f 937/2/6 938/2/6 940/2/6
f 940/2/6 939/2/6 941/2/6
f 942/2/6 943/2/6 944/2/6
f 944/2/6 943/2/6 945/2/6
f 946/2/6 947/2/6 948/2/6
f 948/2/6 947/2/6 949/2/6
f 950/2/6 951/2/6 952/2/6
f 952/2/6 951/2/6 953/2/6
f 954/2/6 955/2/6 956/2/6
f 956/2/6 955/2/6 957/2/6
f 958/5/6 959/5/6 960/5/6
f 960/5/6 959/5/6 961/5/6
